(['D:\\00.ws_chan\\03.pycharm_project\\ImageConverter_Comp\\ImageConverterAndCompress.py'],
 ['D:\\00.ws_chan\\03.pycharm_project\\ImageConverter_Comp',
  'D:\\00.ws_chan\\03.pycharm_project\\ImageConverter_Comp'],
 ['codecs'],
 ['d:\\00.ws_chan\\03.pycharm_project\\imageconverter_comp\\proj\\lib\\site-packages\\_pyinstaller_hooks_contrib\\hooks\\stdhooks',
  'd:\\00.ws_chan\\03.pycharm_project\\imageconverter_comp\\proj\\lib\\site-packages\\_pyinstaller_hooks_contrib\\hooks\\stdhooks\\__pycache__',
  'd:\\00.ws_chan\\03.pycharm_project\\imageconverter_comp\\proj\\lib\\site-packages\\_pyinstaller_hooks_contrib\\hooks\\rthooks',
  'd:\\00.ws_chan\\03.pycharm_project\\imageconverter_comp\\proj\\lib\\site-packages\\_pyinstaller_hooks_contrib\\hooks\\rthooks\\__pycache__',
  'd:\\00.ws_chan\\03.pycharm_project\\imageconverter_comp\\proj\\lib\\site-packages\\_pyinstaller_hooks_contrib\\hooks'],
 [],
 [],
 False,
 False,
 False,
 '3.8.0 (tags/v3.8.0:fa919fd, Oct 14 2019, 19:37:50) [MSC v.1916 64 bit '
 '(AMD64)]',
 [('pyi_rth_multiprocessing',
   'D:\\00.ws_chan\\03.pycharm_project\\ImageConverter_Comp\\proj\\Lib\\site-packages\\PyInstaller\\hooks\\rthooks\\pyi_rth_multiprocessing.py',
   'PYSOURCE'),
  ('pyi_rth_pyqt5',
   'D:\\00.ws_chan\\03.pycharm_project\\ImageConverter_Comp\\proj\\Lib\\site-packages\\PyInstaller\\hooks\\rthooks\\pyi_rth_pyqt5.py',
   'PYSOURCE'),
  ('ImageConverterAndCompress',
   'D:\\00.ws_chan\\03.pycharm_project\\ImageConverter_Comp\\ImageConverterAndCompress.py',
   'PYSOURCE')],
 [('multiprocessing.popen_spawn_posix',
   'C:\\Users\\SoluM\\AppData\\Local\\Programs\\Python\\Python38\\lib\\multiprocessing\\popen_spawn_posix.py',
   'PYMODULE'),
  ('multiprocessing.resource_tracker',
   'C:\\Users\\SoluM\\AppData\\Local\\Programs\\Python\\Python38\\lib\\multiprocessing\\resource_tracker.py',
   'PYMODULE'),
  ('threading',
   'C:\\Users\\SoluM\\AppData\\Local\\Programs\\Python\\Python38\\lib\\threading.py',
   'PYMODULE'),
  ('_threading_local',
   'C:\\Users\\SoluM\\AppData\\Local\\Programs\\Python\\Python38\\lib\\_threading_local.py',
   'PYMODULE'),
  ('contextlib',
   'C:\\Users\\SoluM\\AppData\\Local\\Programs\\Python\\Python38\\lib\\contextlib.py',
   'PYMODULE'),
  ('signal',
   'C:\\Users\\SoluM\\AppData\\Local\\Programs\\Python\\Python38\\lib\\signal.py',
   'PYMODULE'),
  ('multiprocessing.util',
   'C:\\Users\\SoluM\\AppData\\Local\\Programs\\Python\\Python38\\lib\\multiprocessing\\util.py',
   'PYMODULE'),
  ('tempfile',
   'C:\\Users\\SoluM\\AppData\\Local\\Programs\\Python\\Python38\\lib\\tempfile.py',
   'PYMODULE'),
  ('random',
   'C:\\Users\\SoluM\\AppData\\Local\\Programs\\Python\\Python38\\lib\\random.py',
   'PYMODULE'),
  ('hashlib',
   'C:\\Users\\SoluM\\AppData\\Local\\Programs\\Python\\Python38\\lib\\hashlib.py',
   'PYMODULE'),
  ('bisect',
   'C:\\Users\\SoluM\\AppData\\Local\\Programs\\Python\\Python38\\lib\\bisect.py',
   'PYMODULE'),
  ('shutil',
   'C:\\Users\\SoluM\\AppData\\Local\\Programs\\Python\\Python38\\lib\\shutil.py',
   'PYMODULE'),
  ('zipfile',
   'C:\\Users\\SoluM\\AppData\\Local\\Programs\\Python\\Python38\\lib\\zipfile.py',
   'PYMODULE'),
  ('argparse',
   'C:\\Users\\SoluM\\AppData\\Local\\Programs\\Python\\Python38\\lib\\argparse.py',
   'PYMODULE'),
  ('textwrap',
   'C:\\Users\\SoluM\\AppData\\Local\\Programs\\Python\\Python38\\lib\\textwrap.py',
   'PYMODULE'),
  ('copy',
   'C:\\Users\\SoluM\\AppData\\Local\\Programs\\Python\\Python38\\lib\\copy.py',
   'PYMODULE'),
  ('gettext',
   'C:\\Users\\SoluM\\AppData\\Local\\Programs\\Python\\Python38\\lib\\gettext.py',
   'PYMODULE'),
  ('py_compile',
   'C:\\Users\\SoluM\\AppData\\Local\\Programs\\Python\\Python38\\lib\\py_compile.py',
   'PYMODULE'),
  ('ntpath',
   'C:\\Users\\SoluM\\AppData\\Local\\Programs\\Python\\Python38\\lib\\ntpath.py',
   'PYMODULE'),
  ('string',
   'C:\\Users\\SoluM\\AppData\\Local\\Programs\\Python\\Python38\\lib\\string.py',
   'PYMODULE'),
  ('genericpath',
   'C:\\Users\\SoluM\\AppData\\Local\\Programs\\Python\\Python38\\lib\\genericpath.py',
   'PYMODULE'),
  ('importlib.machinery',
   'C:\\Users\\SoluM\\AppData\\Local\\Programs\\Python\\Python38\\lib\\importlib\\machinery.py',
   'PYMODULE'),
  ('importlib',
   'C:\\Users\\SoluM\\AppData\\Local\\Programs\\Python\\Python38\\lib\\importlib\\__init__.py',
   'PYMODULE'),
  ('importlib.abc',
   'C:\\Users\\SoluM\\AppData\\Local\\Programs\\Python\\Python38\\lib\\importlib\\abc.py',
   'PYMODULE'),
  ('importlib._bootstrap',
   'C:\\Users\\SoluM\\AppData\\Local\\Programs\\Python\\Python38\\lib\\importlib\\_bootstrap.py',
   'PYMODULE'),
  ('importlib._bootstrap_external',
   'C:\\Users\\SoluM\\AppData\\Local\\Programs\\Python\\Python38\\lib\\importlib\\_bootstrap_external.py',
   'PYMODULE'),
  ('importlib.metadata',
   'C:\\Users\\SoluM\\AppData\\Local\\Programs\\Python\\Python38\\lib\\importlib\\metadata.py',
   'PYMODULE'),
  ('configparser',
   'C:\\Users\\SoluM\\AppData\\Local\\Programs\\Python\\Python38\\lib\\configparser.py',
   'PYMODULE'),
  ('pathlib',
   'C:\\Users\\SoluM\\AppData\\Local\\Programs\\Python\\Python38\\lib\\pathlib.py',
   'PYMODULE'),
  ('urllib.parse',
   'C:\\Users\\SoluM\\AppData\\Local\\Programs\\Python\\Python38\\lib\\urllib\\parse.py',
   'PYMODULE'),
  ('urllib',
   'C:\\Users\\SoluM\\AppData\\Local\\Programs\\Python\\Python38\\lib\\urllib\\__init__.py',
   'PYMODULE'),
  ('email',
   'C:\\Users\\SoluM\\AppData\\Local\\Programs\\Python\\Python38\\lib\\email\\__init__.py',
   'PYMODULE'),
  ('email.parser',
   'C:\\Users\\SoluM\\AppData\\Local\\Programs\\Python\\Python38\\lib\\email\\parser.py',
   'PYMODULE'),
  ('email._policybase',
   'C:\\Users\\SoluM\\AppData\\Local\\Programs\\Python\\Python38\\lib\\email\\_policybase.py',
   'PYMODULE'),
  ('email.utils',
   'C:\\Users\\SoluM\\AppData\\Local\\Programs\\Python\\Python38\\lib\\email\\utils.py',
   'PYMODULE'),
  ('email._parseaddr',
   'C:\\Users\\SoluM\\AppData\\Local\\Programs\\Python\\Python38\\lib\\email\\_parseaddr.py',
   'PYMODULE'),
  ('calendar',
   'C:\\Users\\SoluM\\AppData\\Local\\Programs\\Python\\Python38\\lib\\calendar.py',
   'PYMODULE'),
  ('datetime',
   'C:\\Users\\SoluM\\AppData\\Local\\Programs\\Python\\Python38\\lib\\datetime.py',
   'PYMODULE'),
  ('_strptime',
   'C:\\Users\\SoluM\\AppData\\Local\\Programs\\Python\\Python38\\lib\\_strptime.py',
   'PYMODULE'),
  ('socket',
   'C:\\Users\\SoluM\\AppData\\Local\\Programs\\Python\\Python38\\lib\\socket.py',
   'PYMODULE'),
  ('selectors',
   'C:\\Users\\SoluM\\AppData\\Local\\Programs\\Python\\Python38\\lib\\selectors.py',
   'PYMODULE'),
  ('email.feedparser',
   'C:\\Users\\SoluM\\AppData\\Local\\Programs\\Python\\Python38\\lib\\email\\feedparser.py',
   'PYMODULE'),
  ('email.message',
   'C:\\Users\\SoluM\\AppData\\Local\\Programs\\Python\\Python38\\lib\\email\\message.py',
   'PYMODULE'),
  ('email.policy',
   'C:\\Users\\SoluM\\AppData\\Local\\Programs\\Python\\Python38\\lib\\email\\policy.py',
   'PYMODULE'),
  ('email.contentmanager',
   'C:\\Users\\SoluM\\AppData\\Local\\Programs\\Python\\Python38\\lib\\email\\contentmanager.py',
   'PYMODULE'),
  ('email.quoprimime',
   'C:\\Users\\SoluM\\AppData\\Local\\Programs\\Python\\Python38\\lib\\email\\quoprimime.py',
   'PYMODULE'),
  ('email.headerregistry',
   'C:\\Users\\SoluM\\AppData\\Local\\Programs\\Python\\Python38\\lib\\email\\headerregistry.py',
   'PYMODULE'),
  ('email.iterators',
   'C:\\Users\\SoluM\\AppData\\Local\\Programs\\Python\\Python38\\lib\\email\\iterators.py',
   'PYMODULE'),
  ('email.generator',
   'C:\\Users\\SoluM\\AppData\\Local\\Programs\\Python\\Python38\\lib\\email\\generator.py',
   'PYMODULE'),
  ('email._encoded_words',
   'C:\\Users\\SoluM\\AppData\\Local\\Programs\\Python\\Python38\\lib\\email\\_encoded_words.py',
   'PYMODULE'),
  ('base64',
   'C:\\Users\\SoluM\\AppData\\Local\\Programs\\Python\\Python38\\lib\\base64.py',
   'PYMODULE'),
  ('getopt',
   'C:\\Users\\SoluM\\AppData\\Local\\Programs\\Python\\Python38\\lib\\getopt.py',
   'PYMODULE'),
  ('quopri',
   'C:\\Users\\SoluM\\AppData\\Local\\Programs\\Python\\Python38\\lib\\quopri.py',
   'PYMODULE'),
  ('uu',
   'C:\\Users\\SoluM\\AppData\\Local\\Programs\\Python\\Python38\\lib\\uu.py',
   'PYMODULE'),
  ('email._header_value_parser',
   'C:\\Users\\SoluM\\AppData\\Local\\Programs\\Python\\Python38\\lib\\email\\_header_value_parser.py',
   'PYMODULE'),
  ('email.header',
   'C:\\Users\\SoluM\\AppData\\Local\\Programs\\Python\\Python38\\lib\\email\\header.py',
   'PYMODULE'),
  ('email.base64mime',
   'C:\\Users\\SoluM\\AppData\\Local\\Programs\\Python\\Python38\\lib\\email\\base64mime.py',
   'PYMODULE'),
  ('email.charset',
   'C:\\Users\\SoluM\\AppData\\Local\\Programs\\Python\\Python38\\lib\\email\\charset.py',
   'PYMODULE'),
  ('email.encoders',
   'C:\\Users\\SoluM\\AppData\\Local\\Programs\\Python\\Python38\\lib\\email\\encoders.py',
   'PYMODULE'),
  ('email.errors',
   'C:\\Users\\SoluM\\AppData\\Local\\Programs\\Python\\Python38\\lib\\email\\errors.py',
   'PYMODULE'),
  ('csv',
   'C:\\Users\\SoluM\\AppData\\Local\\Programs\\Python\\Python38\\lib\\csv.py',
   'PYMODULE'),
  ('tokenize',
   'C:\\Users\\SoluM\\AppData\\Local\\Programs\\Python\\Python38\\lib\\tokenize.py',
   'PYMODULE'),
  ('token',
   'C:\\Users\\SoluM\\AppData\\Local\\Programs\\Python\\Python38\\lib\\token.py',
   'PYMODULE'),
  ('posixpath',
   'C:\\Users\\SoluM\\AppData\\Local\\Programs\\Python\\Python38\\lib\\posixpath.py',
   'PYMODULE'),
  ('importlib.util',
   'C:\\Users\\SoluM\\AppData\\Local\\Programs\\Python\\Python38\\lib\\importlib\\util.py',
   'PYMODULE'),
  ('tarfile',
   'C:\\Users\\SoluM\\AppData\\Local\\Programs\\Python\\Python38\\lib\\tarfile.py',
   'PYMODULE'),
  ('gzip',
   'C:\\Users\\SoluM\\AppData\\Local\\Programs\\Python\\Python38\\lib\\gzip.py',
   'PYMODULE'),
  ('_compression',
   'C:\\Users\\SoluM\\AppData\\Local\\Programs\\Python\\Python38\\lib\\_compression.py',
   'PYMODULE'),
  ('lzma',
   'C:\\Users\\SoluM\\AppData\\Local\\Programs\\Python\\Python38\\lib\\lzma.py',
   'PYMODULE'),
  ('bz2',
   'C:\\Users\\SoluM\\AppData\\Local\\Programs\\Python\\Python38\\lib\\bz2.py',
   'PYMODULE'),
  ('fnmatch',
   'C:\\Users\\SoluM\\AppData\\Local\\Programs\\Python\\Python38\\lib\\fnmatch.py',
   'PYMODULE'),
  ('stat',
   'C:\\Users\\SoluM\\AppData\\Local\\Programs\\Python\\Python38\\lib\\stat.py',
   'PYMODULE'),
  ('logging',
   'C:\\Users\\SoluM\\AppData\\Local\\Programs\\Python\\Python38\\lib\\logging\\__init__.py',
   'PYMODULE'),
  ('pickle',
   'C:\\Users\\SoluM\\AppData\\Local\\Programs\\Python\\Python38\\lib\\pickle.py',
   'PYMODULE'),
  ('pprint',
   'C:\\Users\\SoluM\\AppData\\Local\\Programs\\Python\\Python38\\lib\\pprint.py',
   'PYMODULE'),
  ('doctest',
   'C:\\Users\\SoluM\\AppData\\Local\\Programs\\Python\\Python38\\lib\\doctest.py',
   'PYMODULE'),
  ('unittest',
   'C:\\Users\\SoluM\\AppData\\Local\\Programs\\Python\\Python38\\lib\\unittest\\__init__.py',
   'PYMODULE'),
  ('unittest.signals',
   'C:\\Users\\SoluM\\AppData\\Local\\Programs\\Python\\Python38\\lib\\unittest\\signals.py',
   'PYMODULE'),
  ('unittest.main',
   'C:\\Users\\SoluM\\AppData\\Local\\Programs\\Python\\Python38\\lib\\unittest\\main.py',
   'PYMODULE'),
  ('unittest.runner',
   'C:\\Users\\SoluM\\AppData\\Local\\Programs\\Python\\Python38\\lib\\unittest\\runner.py',
   'PYMODULE'),
  ('unittest.loader',
   'C:\\Users\\SoluM\\AppData\\Local\\Programs\\Python\\Python38\\lib\\unittest\\loader.py',
   'PYMODULE'),
  ('unittest.suite',
   'C:\\Users\\SoluM\\AppData\\Local\\Programs\\Python\\Python38\\lib\\unittest\\suite.py',
   'PYMODULE'),
  ('unittest.case',
   'C:\\Users\\SoluM\\AppData\\Local\\Programs\\Python\\Python38\\lib\\unittest\\case.py',
   'PYMODULE'),
  ('unittest.async_case',
   'C:\\Users\\SoluM\\AppData\\Local\\Programs\\Python\\Python38\\lib\\unittest\\async_case.py',
   'PYMODULE'),
  ('asyncio',
   'C:\\Users\\SoluM\\AppData\\Local\\Programs\\Python\\Python38\\lib\\asyncio\\__init__.py',
   'PYMODULE'),
  ('asyncio.unix_events',
   'C:\\Users\\SoluM\\AppData\\Local\\Programs\\Python\\Python38\\lib\\asyncio\\unix_events.py',
   'PYMODULE'),
  ('asyncio.log',
   'C:\\Users\\SoluM\\AppData\\Local\\Programs\\Python\\Python38\\lib\\asyncio\\log.py',
   'PYMODULE'),
  ('asyncio.windows_events',
   'C:\\Users\\SoluM\\AppData\\Local\\Programs\\Python\\Python38\\lib\\asyncio\\windows_events.py',
   'PYMODULE'),
  ('asyncio.windows_utils',
   'C:\\Users\\SoluM\\AppData\\Local\\Programs\\Python\\Python38\\lib\\asyncio\\windows_utils.py',
   'PYMODULE'),
  ('asyncio.selector_events',
   'C:\\Users\\SoluM\\AppData\\Local\\Programs\\Python\\Python38\\lib\\asyncio\\selector_events.py',
   'PYMODULE'),
  ('ssl',
   'C:\\Users\\SoluM\\AppData\\Local\\Programs\\Python\\Python38\\lib\\ssl.py',
   'PYMODULE'),
  ('asyncio.proactor_events',
   'C:\\Users\\SoluM\\AppData\\Local\\Programs\\Python\\Python38\\lib\\asyncio\\proactor_events.py',
   'PYMODULE'),
  ('asyncio.base_subprocess',
   'C:\\Users\\SoluM\\AppData\\Local\\Programs\\Python\\Python38\\lib\\asyncio\\base_subprocess.py',
   'PYMODULE'),
  ('asyncio.subprocess',
   'C:\\Users\\SoluM\\AppData\\Local\\Programs\\Python\\Python38\\lib\\asyncio\\subprocess.py',
   'PYMODULE'),
  ('asyncio.streams',
   'C:\\Users\\SoluM\\AppData\\Local\\Programs\\Python\\Python38\\lib\\asyncio\\streams.py',
   'PYMODULE'),
  ('asyncio.queues',
   'C:\\Users\\SoluM\\AppData\\Local\\Programs\\Python\\Python38\\lib\\asyncio\\queues.py',
   'PYMODULE'),
  ('asyncio.runners',
   'C:\\Users\\SoluM\\AppData\\Local\\Programs\\Python\\Python38\\lib\\asyncio\\runners.py',
   'PYMODULE'),
  ('asyncio.trsock',
   'C:\\Users\\SoluM\\AppData\\Local\\Programs\\Python\\Python38\\lib\\asyncio\\trsock.py',
   'PYMODULE'),
  ('asyncio.staggered',
   'C:\\Users\\SoluM\\AppData\\Local\\Programs\\Python\\Python38\\lib\\asyncio\\staggered.py',
   'PYMODULE'),
  ('typing',
   'C:\\Users\\SoluM\\AppData\\Local\\Programs\\Python\\Python38\\lib\\typing.py',
   'PYMODULE'),
  ('asyncio.tasks',
   'C:\\Users\\SoluM\\AppData\\Local\\Programs\\Python\\Python38\\lib\\asyncio\\tasks.py',
   'PYMODULE'),
  ('contextvars',
   'C:\\Users\\SoluM\\AppData\\Local\\Programs\\Python\\Python38\\lib\\contextvars.py',
   'PYMODULE'),
  ('concurrent.futures',
   'C:\\Users\\SoluM\\AppData\\Local\\Programs\\Python\\Python38\\lib\\concurrent\\futures\\__init__.py',
   'PYMODULE'),
  ('concurrent.futures.thread',
   'C:\\Users\\SoluM\\AppData\\Local\\Programs\\Python\\Python38\\lib\\concurrent\\futures\\thread.py',
   'PYMODULE'),
  ('queue',
   'C:\\Users\\SoluM\\AppData\\Local\\Programs\\Python\\Python38\\lib\\queue.py',
   'PYMODULE'),
  ('concurrent.futures.process',
   'C:\\Users\\SoluM\\AppData\\Local\\Programs\\Python\\Python38\\lib\\concurrent\\futures\\process.py',
   'PYMODULE'),
  ('multiprocessing.queues',
   'C:\\Users\\SoluM\\AppData\\Local\\Programs\\Python\\Python38\\lib\\multiprocessing\\queues.py',
   'PYMODULE'),
  ('multiprocessing.synchronize',
   'C:\\Users\\SoluM\\AppData\\Local\\Programs\\Python\\Python38\\lib\\multiprocessing\\synchronize.py',
   'PYMODULE'),
  ('multiprocessing.heap',
   'C:\\Users\\SoluM\\AppData\\Local\\Programs\\Python\\Python38\\lib\\multiprocessing\\heap.py',
   'PYMODULE'),
  ('multiprocessing.connection',
   'C:\\Users\\SoluM\\AppData\\Local\\Programs\\Python\\Python38\\lib\\multiprocessing\\connection.py',
   'PYMODULE'),
  ('multiprocessing.resource_sharer',
   'C:\\Users\\SoluM\\AppData\\Local\\Programs\\Python\\Python38\\lib\\multiprocessing\\resource_sharer.py',
   'PYMODULE'),
  ('xmlrpc.client',
   'C:\\Users\\SoluM\\AppData\\Local\\Programs\\Python\\Python38\\lib\\xmlrpc\\client.py',
   'PYMODULE'),
  ('xmlrpc',
   'C:\\Users\\SoluM\\AppData\\Local\\Programs\\Python\\Python38\\lib\\xmlrpc\\__init__.py',
   'PYMODULE'),
  ('xml.parsers.expat',
   'C:\\Users\\SoluM\\AppData\\Local\\Programs\\Python\\Python38\\lib\\xml\\parsers\\expat.py',
   'PYMODULE'),
  ('xml.parsers',
   'C:\\Users\\SoluM\\AppData\\Local\\Programs\\Python\\Python38\\lib\\xml\\parsers\\__init__.py',
   'PYMODULE'),
  ('xml',
   'C:\\Users\\SoluM\\AppData\\Local\\Programs\\Python\\Python38\\lib\\xml\\__init__.py',
   'PYMODULE'),
  ('xml.sax.expatreader',
   'C:\\Users\\SoluM\\AppData\\Local\\Programs\\Python\\Python38\\lib\\xml\\sax\\expatreader.py',
   'PYMODULE'),
  ('xml.sax.saxutils',
   'C:\\Users\\SoluM\\AppData\\Local\\Programs\\Python\\Python38\\lib\\xml\\sax\\saxutils.py',
   'PYMODULE'),
  ('urllib.request',
   'C:\\Users\\SoluM\\AppData\\Local\\Programs\\Python\\Python38\\lib\\urllib\\request.py',
   'PYMODULE'),
  ('getpass',
   'C:\\Users\\SoluM\\AppData\\Local\\Programs\\Python\\Python38\\lib\\getpass.py',
   'PYMODULE'),
  ('nturl2path',
   'C:\\Users\\SoluM\\AppData\\Local\\Programs\\Python\\Python38\\lib\\nturl2path.py',
   'PYMODULE'),
  ('ftplib',
   'C:\\Users\\SoluM\\AppData\\Local\\Programs\\Python\\Python38\\lib\\ftplib.py',
   'PYMODULE'),
  ('netrc',
   'C:\\Users\\SoluM\\AppData\\Local\\Programs\\Python\\Python38\\lib\\netrc.py',
   'PYMODULE'),
  ('shlex',
   'C:\\Users\\SoluM\\AppData\\Local\\Programs\\Python\\Python38\\lib\\shlex.py',
   'PYMODULE'),
  ('mimetypes',
   'C:\\Users\\SoluM\\AppData\\Local\\Programs\\Python\\Python38\\lib\\mimetypes.py',
   'PYMODULE'),
  ('http.cookiejar',
   'C:\\Users\\SoluM\\AppData\\Local\\Programs\\Python\\Python38\\lib\\http\\cookiejar.py',
   'PYMODULE'),
  ('http',
   'C:\\Users\\SoluM\\AppData\\Local\\Programs\\Python\\Python38\\lib\\http\\__init__.py',
   'PYMODULE'),
  ('urllib.response',
   'C:\\Users\\SoluM\\AppData\\Local\\Programs\\Python\\Python38\\lib\\urllib\\response.py',
   'PYMODULE'),
  ('urllib.error',
   'C:\\Users\\SoluM\\AppData\\Local\\Programs\\Python\\Python38\\lib\\urllib\\error.py',
   'PYMODULE'),
  ('xml.sax',
   'C:\\Users\\SoluM\\AppData\\Local\\Programs\\Python\\Python38\\lib\\xml\\sax\\__init__.py',
   'PYMODULE'),
  ('xml.sax.handler',
   'C:\\Users\\SoluM\\AppData\\Local\\Programs\\Python\\Python38\\lib\\xml\\sax\\handler.py',
   'PYMODULE'),
  ('xml.sax._exceptions',
   'C:\\Users\\SoluM\\AppData\\Local\\Programs\\Python\\Python38\\lib\\xml\\sax\\_exceptions.py',
   'PYMODULE'),
  ('xml.sax.xmlreader',
   'C:\\Users\\SoluM\\AppData\\Local\\Programs\\Python\\Python38\\lib\\xml\\sax\\xmlreader.py',
   'PYMODULE'),
  ('http.client',
   'C:\\Users\\SoluM\\AppData\\Local\\Programs\\Python\\Python38\\lib\\http\\client.py',
   'PYMODULE'),
  ('decimal',
   'C:\\Users\\SoluM\\AppData\\Local\\Programs\\Python\\Python38\\lib\\decimal.py',
   'PYMODULE'),
  ('_pydecimal',
   'C:\\Users\\SoluM\\AppData\\Local\\Programs\\Python\\Python38\\lib\\_pydecimal.py',
   'PYMODULE'),
  ('numbers',
   'C:\\Users\\SoluM\\AppData\\Local\\Programs\\Python\\Python38\\lib\\numbers.py',
   'PYMODULE'),
  ('hmac',
   'C:\\Users\\SoluM\\AppData\\Local\\Programs\\Python\\Python38\\lib\\hmac.py',
   'PYMODULE'),
  ('concurrent.futures._base',
   'C:\\Users\\SoluM\\AppData\\Local\\Programs\\Python\\Python38\\lib\\concurrent\\futures\\_base.py',
   'PYMODULE'),
  ('concurrent',
   'C:\\Users\\SoluM\\AppData\\Local\\Programs\\Python\\Python38\\lib\\concurrent\\__init__.py',
   'PYMODULE'),
  ('asyncio.base_tasks',
   'C:\\Users\\SoluM\\AppData\\Local\\Programs\\Python\\Python38\\lib\\asyncio\\base_tasks.py',
   'PYMODULE'),
  ('asyncio.locks',
   'C:\\Users\\SoluM\\AppData\\Local\\Programs\\Python\\Python38\\lib\\asyncio\\locks.py',
   'PYMODULE'),
  ('asyncio.sslproto',
   'C:\\Users\\SoluM\\AppData\\Local\\Programs\\Python\\Python38\\lib\\asyncio\\sslproto.py',
   'PYMODULE'),
  ('asyncio.transports',
   'C:\\Users\\SoluM\\AppData\\Local\\Programs\\Python\\Python38\\lib\\asyncio\\transports.py',
   'PYMODULE'),
  ('asyncio.base_events',
   'C:\\Users\\SoluM\\AppData\\Local\\Programs\\Python\\Python38\\lib\\asyncio\\base_events.py',
   'PYMODULE'),
  ('asyncio.protocols',
   'C:\\Users\\SoluM\\AppData\\Local\\Programs\\Python\\Python38\\lib\\asyncio\\protocols.py',
   'PYMODULE'),
  ('asyncio.futures',
   'C:\\Users\\SoluM\\AppData\\Local\\Programs\\Python\\Python38\\lib\\asyncio\\futures.py',
   'PYMODULE'),
  ('asyncio.events',
   'C:\\Users\\SoluM\\AppData\\Local\\Programs\\Python\\Python38\\lib\\asyncio\\events.py',
   'PYMODULE'),
  ('asyncio.exceptions',
   'C:\\Users\\SoluM\\AppData\\Local\\Programs\\Python\\Python38\\lib\\asyncio\\exceptions.py',
   'PYMODULE'),
  ('asyncio.coroutines',
   'C:\\Users\\SoluM\\AppData\\Local\\Programs\\Python\\Python38\\lib\\asyncio\\coroutines.py',
   'PYMODULE'),
  ('asyncio.base_futures',
   'C:\\Users\\SoluM\\AppData\\Local\\Programs\\Python\\Python38\\lib\\asyncio\\base_futures.py',
   'PYMODULE'),
  ('asyncio.format_helpers',
   'C:\\Users\\SoluM\\AppData\\Local\\Programs\\Python\\Python38\\lib\\asyncio\\format_helpers.py',
   'PYMODULE'),
  ('asyncio.constants',
   'C:\\Users\\SoluM\\AppData\\Local\\Programs\\Python\\Python38\\lib\\asyncio\\constants.py',
   'PYMODULE'),
  ('unittest.result',
   'C:\\Users\\SoluM\\AppData\\Local\\Programs\\Python\\Python38\\lib\\unittest\\result.py',
   'PYMODULE'),
  ('unittest.util',
   'C:\\Users\\SoluM\\AppData\\Local\\Programs\\Python\\Python38\\lib\\unittest\\util.py',
   'PYMODULE'),
  ('pdb',
   'C:\\Users\\SoluM\\AppData\\Local\\Programs\\Python\\Python38\\lib\\pdb.py',
   'PYMODULE'),
  ('pydoc',
   'C:\\Users\\SoluM\\AppData\\Local\\Programs\\Python\\Python38\\lib\\pydoc.py',
   'PYMODULE'),
  ('webbrowser',
   'C:\\Users\\SoluM\\AppData\\Local\\Programs\\Python\\Python38\\lib\\webbrowser.py',
   'PYMODULE'),
  ('http.server',
   'C:\\Users\\SoluM\\AppData\\Local\\Programs\\Python\\Python38\\lib\\http\\server.py',
   'PYMODULE'),
  ('socketserver',
   'C:\\Users\\SoluM\\AppData\\Local\\Programs\\Python\\Python38\\lib\\socketserver.py',
   'PYMODULE'),
  ('html',
   'C:\\Users\\SoluM\\AppData\\Local\\Programs\\Python\\Python38\\lib\\html\\__init__.py',
   'PYMODULE'),
  ('html.entities',
   'C:\\Users\\SoluM\\AppData\\Local\\Programs\\Python\\Python38\\lib\\html\\entities.py',
   'PYMODULE'),
  ('pydoc_data.topics',
   'C:\\Users\\SoluM\\AppData\\Local\\Programs\\Python\\Python38\\lib\\pydoc_data\\topics.py',
   'PYMODULE'),
  ('pydoc_data',
   'C:\\Users\\SoluM\\AppData\\Local\\Programs\\Python\\Python38\\lib\\pydoc_data\\__init__.py',
   'PYMODULE'),
  ('tty',
   'C:\\Users\\SoluM\\AppData\\Local\\Programs\\Python\\Python38\\lib\\tty.py',
   'PYMODULE'),
  ('platform',
   'C:\\Users\\SoluM\\AppData\\Local\\Programs\\Python\\Python38\\lib\\platform.py',
   'PYMODULE'),
  ('plistlib',
   'C:\\Users\\SoluM\\AppData\\Local\\Programs\\Python\\Python38\\lib\\plistlib.py',
   'PYMODULE'),
  ('pkgutil',
   'C:\\Users\\SoluM\\AppData\\Local\\Programs\\Python\\Python38\\lib\\pkgutil.py',
   'PYMODULE'),
  ('zipimport',
   'C:\\Users\\SoluM\\AppData\\Local\\Programs\\Python\\Python38\\lib\\zipimport.py',
   'PYMODULE'),
  ('runpy',
   'C:\\Users\\SoluM\\AppData\\Local\\Programs\\Python\\Python38\\lib\\runpy.py',
   'PYMODULE'),
  ('glob',
   'C:\\Users\\SoluM\\AppData\\Local\\Programs\\Python\\Python38\\lib\\glob.py',
   'PYMODULE'),
  ('code',
   'C:\\Users\\SoluM\\AppData\\Local\\Programs\\Python\\Python38\\lib\\code.py',
   'PYMODULE'),
  ('codeop',
   'C:\\Users\\SoluM\\AppData\\Local\\Programs\\Python\\Python38\\lib\\codeop.py',
   'PYMODULE'),
  ('dis',
   'C:\\Users\\SoluM\\AppData\\Local\\Programs\\Python\\Python38\\lib\\dis.py',
   'PYMODULE'),
  ('opcode',
   'C:\\Users\\SoluM\\AppData\\Local\\Programs\\Python\\Python38\\lib\\opcode.py',
   'PYMODULE'),
  ('bdb',
   'C:\\Users\\SoluM\\AppData\\Local\\Programs\\Python\\Python38\\lib\\bdb.py',
   'PYMODULE'),
  ('cmd',
   'C:\\Users\\SoluM\\AppData\\Local\\Programs\\Python\\Python38\\lib\\cmd.py',
   'PYMODULE'),
  ('inspect',
   'C:\\Users\\SoluM\\AppData\\Local\\Programs\\Python\\Python38\\lib\\inspect.py',
   'PYMODULE'),
  ('ast',
   'C:\\Users\\SoluM\\AppData\\Local\\Programs\\Python\\Python38\\lib\\ast.py',
   'PYMODULE'),
  ('difflib',
   'C:\\Users\\SoluM\\AppData\\Local\\Programs\\Python\\Python38\\lib\\difflib.py',
   'PYMODULE'),
  ('__future__',
   'C:\\Users\\SoluM\\AppData\\Local\\Programs\\Python\\Python38\\lib\\__future__.py',
   'PYMODULE'),
  ('_compat_pickle',
   'C:\\Users\\SoluM\\AppData\\Local\\Programs\\Python\\Python38\\lib\\_compat_pickle.py',
   'PYMODULE'),
  ('multiprocessing.process',
   'C:\\Users\\SoluM\\AppData\\Local\\Programs\\Python\\Python38\\lib\\multiprocessing\\process.py',
   'PYMODULE'),
  ('multiprocessing.context',
   'C:\\Users\\SoluM\\AppData\\Local\\Programs\\Python\\Python38\\lib\\multiprocessing\\context.py',
   'PYMODULE'),
  ('multiprocessing.popen_forkserver',
   'C:\\Users\\SoluM\\AppData\\Local\\Programs\\Python\\Python38\\lib\\multiprocessing\\popen_forkserver.py',
   'PYMODULE'),
  ('multiprocessing.forkserver',
   'C:\\Users\\SoluM\\AppData\\Local\\Programs\\Python\\Python38\\lib\\multiprocessing\\forkserver.py',
   'PYMODULE'),
  ('multiprocessing.sharedctypes',
   'C:\\Users\\SoluM\\AppData\\Local\\Programs\\Python\\Python38\\lib\\multiprocessing\\sharedctypes.py',
   'PYMODULE'),
  ('ctypes',
   'C:\\Users\\SoluM\\AppData\\Local\\Programs\\Python\\Python38\\lib\\ctypes\\__init__.py',
   'PYMODULE'),
  ('ctypes._endian',
   'C:\\Users\\SoluM\\AppData\\Local\\Programs\\Python\\Python38\\lib\\ctypes\\_endian.py',
   'PYMODULE'),
  ('multiprocessing.pool',
   'C:\\Users\\SoluM\\AppData\\Local\\Programs\\Python\\Python38\\lib\\multiprocessing\\pool.py',
   'PYMODULE'),
  ('multiprocessing.dummy',
   'C:\\Users\\SoluM\\AppData\\Local\\Programs\\Python\\Python38\\lib\\multiprocessing\\dummy\\__init__.py',
   'PYMODULE'),
  ('multiprocessing.dummy.connection',
   'C:\\Users\\SoluM\\AppData\\Local\\Programs\\Python\\Python38\\lib\\multiprocessing\\dummy\\connection.py',
   'PYMODULE'),
  ('multiprocessing.managers',
   'C:\\Users\\SoluM\\AppData\\Local\\Programs\\Python\\Python38\\lib\\multiprocessing\\managers.py',
   'PYMODULE'),
  ('multiprocessing.shared_memory',
   'C:\\Users\\SoluM\\AppData\\Local\\Programs\\Python\\Python38\\lib\\multiprocessing\\shared_memory.py',
   'PYMODULE'),
  ('secrets',
   'C:\\Users\\SoluM\\AppData\\Local\\Programs\\Python\\Python38\\lib\\secrets.py',
   'PYMODULE'),
  ('multiprocessing.reduction',
   'C:\\Users\\SoluM\\AppData\\Local\\Programs\\Python\\Python38\\lib\\multiprocessing\\reduction.py',
   'PYMODULE'),
  ('multiprocessing.popen_fork',
   'C:\\Users\\SoluM\\AppData\\Local\\Programs\\Python\\Python38\\lib\\multiprocessing\\popen_fork.py',
   'PYMODULE'),
  ('multiprocessing.popen_spawn_win32',
   'C:\\Users\\SoluM\\AppData\\Local\\Programs\\Python\\Python38\\lib\\multiprocessing\\popen_spawn_win32.py',
   'PYMODULE'),
  ('multiprocessing.spawn',
   'C:\\Users\\SoluM\\AppData\\Local\\Programs\\Python\\Python38\\lib\\multiprocessing\\spawn.py',
   'PYMODULE'),
  ('multiprocessing',
   'C:\\Users\\SoluM\\AppData\\Local\\Programs\\Python\\Python38\\lib\\multiprocessing\\__init__.py',
   'PYMODULE'),
  ('stringprep',
   'C:\\Users\\SoluM\\AppData\\Local\\Programs\\Python\\Python38\\lib\\stringprep.py',
   'PYMODULE'),
  ('tracemalloc',
   'C:\\Users\\SoluM\\AppData\\Local\\Programs\\Python\\Python38\\lib\\tracemalloc.py',
   'PYMODULE'),
  ('_py_abc',
   'C:\\Users\\SoluM\\AppData\\Local\\Programs\\Python\\Python38\\lib\\_py_abc.py',
   'PYMODULE'),
  ('PIL.Image',
   'd:\\00.ws_chan\\03.pycharm_project\\imageconverter_comp\\proj\\lib\\site-packages\\PIL\\Image.py',
   'PYMODULE'),
  ('PIL.WmfImagePlugin',
   'd:\\00.ws_chan\\03.pycharm_project\\imageconverter_comp\\proj\\lib\\site-packages\\PIL\\WmfImagePlugin.py',
   'PYMODULE'),
  ('PIL.ImageFile',
   'd:\\00.ws_chan\\03.pycharm_project\\imageconverter_comp\\proj\\lib\\site-packages\\PIL\\ImageFile.py',
   'PYMODULE'),
  ('PIL.SpiderImagePlugin',
   'd:\\00.ws_chan\\03.pycharm_project\\imageconverter_comp\\proj\\lib\\site-packages\\PIL\\SpiderImagePlugin.py',
   'PYMODULE'),
  ('PIL.ImageTk',
   'd:\\00.ws_chan\\03.pycharm_project\\imageconverter_comp\\proj\\lib\\site-packages\\PIL\\ImageTk.py',
   'PYMODULE'),
  ('PIL.GribStubImagePlugin',
   'd:\\00.ws_chan\\03.pycharm_project\\imageconverter_comp\\proj\\lib\\site-packages\\PIL\\GribStubImagePlugin.py',
   'PYMODULE'),
  ('PIL.ImImagePlugin',
   'd:\\00.ws_chan\\03.pycharm_project\\imageconverter_comp\\proj\\lib\\site-packages\\PIL\\ImImagePlugin.py',
   'PYMODULE'),
  ('PIL.XbmImagePlugin',
   'd:\\00.ws_chan\\03.pycharm_project\\imageconverter_comp\\proj\\lib\\site-packages\\PIL\\XbmImagePlugin.py',
   'PYMODULE'),
  ('PIL.CurImagePlugin',
   'd:\\00.ws_chan\\03.pycharm_project\\imageconverter_comp\\proj\\lib\\site-packages\\PIL\\CurImagePlugin.py',
   'PYMODULE'),
  ('PIL.MicImagePlugin',
   'd:\\00.ws_chan\\03.pycharm_project\\imageconverter_comp\\proj\\lib\\site-packages\\PIL\\MicImagePlugin.py',
   'PYMODULE'),
  ('PIL.FitsStubImagePlugin',
   'd:\\00.ws_chan\\03.pycharm_project\\imageconverter_comp\\proj\\lib\\site-packages\\PIL\\FitsStubImagePlugin.py',
   'PYMODULE'),
  ('PIL.IcoImagePlugin',
   'd:\\00.ws_chan\\03.pycharm_project\\imageconverter_comp\\proj\\lib\\site-packages\\PIL\\IcoImagePlugin.py',
   'PYMODULE'),
  ('PIL.GbrImagePlugin',
   'd:\\00.ws_chan\\03.pycharm_project\\imageconverter_comp\\proj\\lib\\site-packages\\PIL\\GbrImagePlugin.py',
   'PYMODULE'),
  ('PIL.SunImagePlugin',
   'd:\\00.ws_chan\\03.pycharm_project\\imageconverter_comp\\proj\\lib\\site-packages\\PIL\\SunImagePlugin.py',
   'PYMODULE'),
  ('PIL.MpegImagePlugin',
   'd:\\00.ws_chan\\03.pycharm_project\\imageconverter_comp\\proj\\lib\\site-packages\\PIL\\MpegImagePlugin.py',
   'PYMODULE'),
  ('PIL.PsdImagePlugin',
   'd:\\00.ws_chan\\03.pycharm_project\\imageconverter_comp\\proj\\lib\\site-packages\\PIL\\PsdImagePlugin.py',
   'PYMODULE'),
  ('PIL.PalmImagePlugin',
   'd:\\00.ws_chan\\03.pycharm_project\\imageconverter_comp\\proj\\lib\\site-packages\\PIL\\PalmImagePlugin.py',
   'PYMODULE'),
  ('PIL.XVThumbImagePlugin',
   'd:\\00.ws_chan\\03.pycharm_project\\imageconverter_comp\\proj\\lib\\site-packages\\PIL\\XVThumbImagePlugin.py',
   'PYMODULE'),
  ('PIL.FpxImagePlugin',
   'd:\\00.ws_chan\\03.pycharm_project\\imageconverter_comp\\proj\\lib\\site-packages\\PIL\\FpxImagePlugin.py',
   'PYMODULE'),
  ('PIL.DdsImagePlugin',
   'd:\\00.ws_chan\\03.pycharm_project\\imageconverter_comp\\proj\\lib\\site-packages\\PIL\\DdsImagePlugin.py',
   'PYMODULE'),
  ('PIL.IptcImagePlugin',
   'd:\\00.ws_chan\\03.pycharm_project\\imageconverter_comp\\proj\\lib\\site-packages\\PIL\\IptcImagePlugin.py',
   'PYMODULE'),
  ('PIL.FtexImagePlugin',
   'd:\\00.ws_chan\\03.pycharm_project\\imageconverter_comp\\proj\\lib\\site-packages\\PIL\\FtexImagePlugin.py',
   'PYMODULE'),
  ('PIL.WebPImagePlugin',
   'd:\\00.ws_chan\\03.pycharm_project\\imageconverter_comp\\proj\\lib\\site-packages\\PIL\\WebPImagePlugin.py',
   'PYMODULE'),
  ('PIL.XpmImagePlugin',
   'd:\\00.ws_chan\\03.pycharm_project\\imageconverter_comp\\proj\\lib\\site-packages\\PIL\\XpmImagePlugin.py',
   'PYMODULE'),
  ('PIL.PdfImagePlugin',
   'd:\\00.ws_chan\\03.pycharm_project\\imageconverter_comp\\proj\\lib\\site-packages\\PIL\\PdfImagePlugin.py',
   'PYMODULE'),
  ('PIL.PdfParser',
   'd:\\00.ws_chan\\03.pycharm_project\\imageconverter_comp\\proj\\lib\\site-packages\\PIL\\PdfParser.py',
   'PYMODULE'),
  ('PIL.ImageSequence',
   'd:\\00.ws_chan\\03.pycharm_project\\imageconverter_comp\\proj\\lib\\site-packages\\PIL\\ImageSequence.py',
   'PYMODULE'),
  ('PIL.Hdf5StubImagePlugin',
   'd:\\00.ws_chan\\03.pycharm_project\\imageconverter_comp\\proj\\lib\\site-packages\\PIL\\Hdf5StubImagePlugin.py',
   'PYMODULE'),
  ('PIL.FliImagePlugin',
   'd:\\00.ws_chan\\03.pycharm_project\\imageconverter_comp\\proj\\lib\\site-packages\\PIL\\FliImagePlugin.py',
   'PYMODULE'),
  ('PIL.MpoImagePlugin',
   'd:\\00.ws_chan\\03.pycharm_project\\imageconverter_comp\\proj\\lib\\site-packages\\PIL\\MpoImagePlugin.py',
   'PYMODULE'),
  ('PIL.TgaImagePlugin',
   'd:\\00.ws_chan\\03.pycharm_project\\imageconverter_comp\\proj\\lib\\site-packages\\PIL\\TgaImagePlugin.py',
   'PYMODULE'),
  ('PIL.McIdasImagePlugin',
   'd:\\00.ws_chan\\03.pycharm_project\\imageconverter_comp\\proj\\lib\\site-packages\\PIL\\McIdasImagePlugin.py',
   'PYMODULE'),
  ('PIL.BufrStubImagePlugin',
   'd:\\00.ws_chan\\03.pycharm_project\\imageconverter_comp\\proj\\lib\\site-packages\\PIL\\BufrStubImagePlugin.py',
   'PYMODULE'),
  ('PIL.IcnsImagePlugin',
   'd:\\00.ws_chan\\03.pycharm_project\\imageconverter_comp\\proj\\lib\\site-packages\\PIL\\IcnsImagePlugin.py',
   'PYMODULE'),
  ('PIL.features',
   'd:\\00.ws_chan\\03.pycharm_project\\imageconverter_comp\\proj\\lib\\site-packages\\PIL\\features.py',
   'PYMODULE'),
  ('PIL.BlpImagePlugin',
   'd:\\00.ws_chan\\03.pycharm_project\\imageconverter_comp\\proj\\lib\\site-packages\\PIL\\BlpImagePlugin.py',
   'PYMODULE'),
  ('PIL.DcxImagePlugin',
   'd:\\00.ws_chan\\03.pycharm_project\\imageconverter_comp\\proj\\lib\\site-packages\\PIL\\DcxImagePlugin.py',
   'PYMODULE'),
  ('PIL.PcxImagePlugin',
   'd:\\00.ws_chan\\03.pycharm_project\\imageconverter_comp\\proj\\lib\\site-packages\\PIL\\PcxImagePlugin.py',
   'PYMODULE'),
  ('PIL.SgiImagePlugin',
   'd:\\00.ws_chan\\03.pycharm_project\\imageconverter_comp\\proj\\lib\\site-packages\\PIL\\SgiImagePlugin.py',
   'PYMODULE'),
  ('PIL.ImtImagePlugin',
   'd:\\00.ws_chan\\03.pycharm_project\\imageconverter_comp\\proj\\lib\\site-packages\\PIL\\ImtImagePlugin.py',
   'PYMODULE'),
  ('PIL.EpsImagePlugin',
   'd:\\00.ws_chan\\03.pycharm_project\\imageconverter_comp\\proj\\lib\\site-packages\\PIL\\EpsImagePlugin.py',
   'PYMODULE'),
  ('PIL.Jpeg2KImagePlugin',
   'd:\\00.ws_chan\\03.pycharm_project\\imageconverter_comp\\proj\\lib\\site-packages\\PIL\\Jpeg2KImagePlugin.py',
   'PYMODULE'),
  ('PIL.MspImagePlugin',
   'd:\\00.ws_chan\\03.pycharm_project\\imageconverter_comp\\proj\\lib\\site-packages\\PIL\\MspImagePlugin.py',
   'PYMODULE'),
  ('PIL.PcdImagePlugin',
   'd:\\00.ws_chan\\03.pycharm_project\\imageconverter_comp\\proj\\lib\\site-packages\\PIL\\PcdImagePlugin.py',
   'PYMODULE'),
  ('PIL.PixarImagePlugin',
   'd:\\00.ws_chan\\03.pycharm_project\\imageconverter_comp\\proj\\lib\\site-packages\\PIL\\PixarImagePlugin.py',
   'PYMODULE'),
  ('PIL.TiffImagePlugin',
   'd:\\00.ws_chan\\03.pycharm_project\\imageconverter_comp\\proj\\lib\\site-packages\\PIL\\TiffImagePlugin.py',
   'PYMODULE'),
  ('fractions',
   'C:\\Users\\SoluM\\AppData\\Local\\Programs\\Python\\Python38\\lib\\fractions.py',
   'PYMODULE'),
  ('PIL.ImageShow',
   'd:\\00.ws_chan\\03.pycharm_project\\imageconverter_comp\\proj\\lib\\site-packages\\PIL\\ImageShow.py',
   'PYMODULE'),
  ('PIL.ImageQt',
   'd:\\00.ws_chan\\03.pycharm_project\\imageconverter_comp\\proj\\lib\\site-packages\\PIL\\ImageQt.py',
   'PYMODULE'),
  ('PIL.ImageColor',
   'd:\\00.ws_chan\\03.pycharm_project\\imageconverter_comp\\proj\\lib\\site-packages\\PIL\\ImageColor.py',
   'PYMODULE'),
  ('colorsys',
   'C:\\Users\\SoluM\\AppData\\Local\\Programs\\Python\\Python38\\lib\\colorsys.py',
   'PYMODULE'),
  ('PIL.ImageFilter',
   'd:\\00.ws_chan\\03.pycharm_project\\imageconverter_comp\\proj\\lib\\site-packages\\PIL\\ImageFilter.py',
   'PYMODULE'),
  ('PIL.PyAccess',
   'd:\\00.ws_chan\\03.pycharm_project\\imageconverter_comp\\proj\\lib\\site-packages\\PIL\\PyAccess.py',
   'PYMODULE'),
  ('PIL.ImagePalette',
   'd:\\00.ws_chan\\03.pycharm_project\\imageconverter_comp\\proj\\lib\\site-packages\\PIL\\ImagePalette.py',
   'PYMODULE'),
  ('PIL.PaletteFile',
   'd:\\00.ws_chan\\03.pycharm_project\\imageconverter_comp\\proj\\lib\\site-packages\\PIL\\PaletteFile.py',
   'PYMODULE'),
  ('PIL.GimpPaletteFile',
   'd:\\00.ws_chan\\03.pycharm_project\\imageconverter_comp\\proj\\lib\\site-packages\\PIL\\GimpPaletteFile.py',
   'PYMODULE'),
  ('PIL.GimpGradientFile',
   'd:\\00.ws_chan\\03.pycharm_project\\imageconverter_comp\\proj\\lib\\site-packages\\PIL\\GimpGradientFile.py',
   'PYMODULE'),
  ('PIL.PngImagePlugin',
   'd:\\00.ws_chan\\03.pycharm_project\\imageconverter_comp\\proj\\lib\\site-packages\\PIL\\PngImagePlugin.py',
   'PYMODULE'),
  ('PIL.ImageChops',
   'd:\\00.ws_chan\\03.pycharm_project\\imageconverter_comp\\proj\\lib\\site-packages\\PIL\\ImageChops.py',
   'PYMODULE'),
  ('PIL.PpmImagePlugin',
   'd:\\00.ws_chan\\03.pycharm_project\\imageconverter_comp\\proj\\lib\\site-packages\\PIL\\PpmImagePlugin.py',
   'PYMODULE'),
  ('PIL.JpegImagePlugin',
   'd:\\00.ws_chan\\03.pycharm_project\\imageconverter_comp\\proj\\lib\\site-packages\\PIL\\JpegImagePlugin.py',
   'PYMODULE'),
  ('PIL.JpegPresets',
   'd:\\00.ws_chan\\03.pycharm_project\\imageconverter_comp\\proj\\lib\\site-packages\\PIL\\JpegPresets.py',
   'PYMODULE'),
  ('PIL.GifImagePlugin',
   'd:\\00.ws_chan\\03.pycharm_project\\imageconverter_comp\\proj\\lib\\site-packages\\PIL\\GifImagePlugin.py',
   'PYMODULE'),
  ('PIL.BmpImagePlugin',
   'd:\\00.ws_chan\\03.pycharm_project\\imageconverter_comp\\proj\\lib\\site-packages\\PIL\\BmpImagePlugin.py',
   'PYMODULE'),
  ('PIL._util',
   'd:\\00.ws_chan\\03.pycharm_project\\imageconverter_comp\\proj\\lib\\site-packages\\PIL\\_util.py',
   'PYMODULE'),
  ('PIL._binary',
   'd:\\00.ws_chan\\03.pycharm_project\\imageconverter_comp\\proj\\lib\\site-packages\\PIL\\_binary.py',
   'PYMODULE'),
  ('PIL.TiffTags',
   'd:\\00.ws_chan\\03.pycharm_project\\imageconverter_comp\\proj\\lib\\site-packages\\PIL\\TiffTags.py',
   'PYMODULE'),
  ('PIL.ImageMode',
   'd:\\00.ws_chan\\03.pycharm_project\\imageconverter_comp\\proj\\lib\\site-packages\\PIL\\ImageMode.py',
   'PYMODULE'),
  ('xml.etree.ElementTree',
   'C:\\Users\\SoluM\\AppData\\Local\\Programs\\Python\\Python38\\lib\\xml\\etree\\ElementTree.py',
   'PYMODULE'),
  ('xml.etree.cElementTree',
   'C:\\Users\\SoluM\\AppData\\Local\\Programs\\Python\\Python38\\lib\\xml\\etree\\cElementTree.py',
   'PYMODULE'),
  ('xml.etree.ElementInclude',
   'C:\\Users\\SoluM\\AppData\\Local\\Programs\\Python\\Python38\\lib\\xml\\etree\\ElementInclude.py',
   'PYMODULE'),
  ('xml.etree.ElementPath',
   'C:\\Users\\SoluM\\AppData\\Local\\Programs\\Python\\Python38\\lib\\xml\\etree\\ElementPath.py',
   'PYMODULE'),
  ('xml.etree',
   'C:\\Users\\SoluM\\AppData\\Local\\Programs\\Python\\Python38\\lib\\xml\\etree\\__init__.py',
   'PYMODULE'),
  ('PIL',
   'd:\\00.ws_chan\\03.pycharm_project\\imageconverter_comp\\proj\\lib\\site-packages\\PIL\\__init__.py',
   'PYMODULE'),
  ('PIL._version',
   'd:\\00.ws_chan\\03.pycharm_project\\imageconverter_comp\\proj\\lib\\site-packages\\PIL\\_version.py',
   'PYMODULE'),
  ('optparse',
   'C:\\Users\\SoluM\\AppData\\Local\\Programs\\Python\\Python38\\lib\\optparse.py',
   'PYMODULE'),
  ('bitstring',
   'd:\\00.ws_chan\\03.pycharm_project\\imageconverter_comp\\proj\\lib\\site-packages\\bitstring.py',
   'PYMODULE'),
  ('PyQt5',
   'd:\\00.ws_chan\\03.pycharm_project\\imageconverter_comp\\proj\\lib\\site-packages\\PyQt5\\__init__.py',
   'PYMODULE'),
  ('intelhex',
   'd:\\00.ws_chan\\03.pycharm_project\\imageconverter_comp\\proj\\lib\\site-packages\\intelhex\\__init__.py',
   'PYMODULE'),
  ('intelhex.getsizeof',
   'd:\\00.ws_chan\\03.pycharm_project\\imageconverter_comp\\proj\\lib\\site-packages\\intelhex\\getsizeof.py',
   'PYMODULE'),
  ('intelhex.compat',
   'd:\\00.ws_chan\\03.pycharm_project\\imageconverter_comp\\proj\\lib\\site-packages\\intelhex\\compat.py',
   'PYMODULE'),
  ('subprocess',
   'C:\\Users\\SoluM\\AppData\\Local\\Programs\\Python\\Python38\\lib\\subprocess.py',
   'PYMODULE'),
  ('os',
   'C:\\Users\\SoluM\\AppData\\Local\\Programs\\Python\\Python38\\lib\\os.py',
   'PYMODULE'),
  ('numpy',
   'd:\\00.ws_chan\\03.pycharm_project\\imageconverter_comp\\proj\\lib\\site-packages\\numpy\\__init__.py',
   'PYMODULE'),
  ('numpy.core._dtype_ctypes',
   'd:\\00.ws_chan\\03.pycharm_project\\imageconverter_comp\\proj\\lib\\site-packages\\numpy\\core\\_dtype_ctypes.py',
   'PYMODULE'),
  ('numpy._pytesttester',
   'd:\\00.ws_chan\\03.pycharm_project\\imageconverter_comp\\proj\\lib\\site-packages\\numpy\\_pytesttester.py',
   'PYMODULE'),
  ('numpy.testing',
   'd:\\00.ws_chan\\03.pycharm_project\\imageconverter_comp\\proj\\lib\\site-packages\\numpy\\testing\\__init__.py',
   'PYMODULE'),
  ('numpy.testing._private.nosetester',
   'd:\\00.ws_chan\\03.pycharm_project\\imageconverter_comp\\proj\\lib\\site-packages\\numpy\\testing\\_private\\nosetester.py',
   'PYMODULE'),
  ('numpy.testing._private.noseclasses',
   'd:\\00.ws_chan\\03.pycharm_project\\imageconverter_comp\\proj\\lib\\site-packages\\numpy\\testing\\_private\\noseclasses.py',
   'PYMODULE'),
  ('numpy.testing._private.decorators',
   'd:\\00.ws_chan\\03.pycharm_project\\imageconverter_comp\\proj\\lib\\site-packages\\numpy\\testing\\_private\\decorators.py',
   'PYMODULE'),
  ('numpy.testing._private.parameterized',
   'd:\\00.ws_chan\\03.pycharm_project\\imageconverter_comp\\proj\\lib\\site-packages\\numpy\\testing\\_private\\parameterized.py',
   'PYMODULE'),
  ('numpy.testing._private',
   'd:\\00.ws_chan\\03.pycharm_project\\imageconverter_comp\\proj\\lib\\site-packages\\numpy\\testing\\_private\\__init__.py',
   'PYMODULE'),
  ('numpy.testing._private.utils',
   'd:\\00.ws_chan\\03.pycharm_project\\imageconverter_comp\\proj\\lib\\site-packages\\numpy\\testing\\_private\\utils.py',
   'PYMODULE'),
  ('numpy.core.fromnumeric',
   'd:\\00.ws_chan\\03.pycharm_project\\imageconverter_comp\\proj\\lib\\site-packages\\numpy\\core\\fromnumeric.py',
   'PYMODULE'),
  ('numpy.core._methods',
   'd:\\00.ws_chan\\03.pycharm_project\\imageconverter_comp\\proj\\lib\\site-packages\\numpy\\core\\_methods.py',
   'PYMODULE'),
  ('numpy.lib.stride_tricks',
   'd:\\00.ws_chan\\03.pycharm_project\\imageconverter_comp\\proj\\lib\\site-packages\\numpy\\lib\\stride_tricks.py',
   'PYMODULE'),
  ('numpy.core.numeric',
   'd:\\00.ws_chan\\03.pycharm_project\\imageconverter_comp\\proj\\lib\\site-packages\\numpy\\core\\numeric.py',
   'PYMODULE'),
  ('numpy.core.arrayprint',
   'd:\\00.ws_chan\\03.pycharm_project\\imageconverter_comp\\proj\\lib\\site-packages\\numpy\\core\\arrayprint.py',
   'PYMODULE'),
  ('_dummy_thread',
   'C:\\Users\\SoluM\\AppData\\Local\\Programs\\Python\\Python38\\lib\\_dummy_thread.py',
   'PYMODULE'),
  ('numpy.core._ufunc_config',
   'd:\\00.ws_chan\\03.pycharm_project\\imageconverter_comp\\proj\\lib\\site-packages\\numpy\\core\\_ufunc_config.py',
   'PYMODULE'),
  ('numpy.core.shape_base',
   'd:\\00.ws_chan\\03.pycharm_project\\imageconverter_comp\\proj\\lib\\site-packages\\numpy\\core\\shape_base.py',
   'PYMODULE'),
  ('numpy.core._exceptions',
   'd:\\00.ws_chan\\03.pycharm_project\\imageconverter_comp\\proj\\lib\\site-packages\\numpy\\core\\_exceptions.py',
   'PYMODULE'),
  ('numpy.core._asarray',
   'd:\\00.ws_chan\\03.pycharm_project\\imageconverter_comp\\proj\\lib\\site-packages\\numpy\\core\\_asarray.py',
   'PYMODULE'),
  ('numpy.core.umath',
   'd:\\00.ws_chan\\03.pycharm_project\\imageconverter_comp\\proj\\lib\\site-packages\\numpy\\core\\umath.py',
   'PYMODULE'),
  ('numpy.core.overrides',
   'd:\\00.ws_chan\\03.pycharm_project\\imageconverter_comp\\proj\\lib\\site-packages\\numpy\\core\\overrides.py',
   'PYMODULE'),
  ('numpy.compat._inspect',
   'd:\\00.ws_chan\\03.pycharm_project\\imageconverter_comp\\proj\\lib\\site-packages\\numpy\\compat\\_inspect.py',
   'PYMODULE'),
  ('numpy.core.multiarray',
   'd:\\00.ws_chan\\03.pycharm_project\\imageconverter_comp\\proj\\lib\\site-packages\\numpy\\core\\multiarray.py',
   'PYMODULE'),
  ('numpy.core.numerictypes',
   'd:\\00.ws_chan\\03.pycharm_project\\imageconverter_comp\\proj\\lib\\site-packages\\numpy\\core\\numerictypes.py',
   'PYMODULE'),
  ('numpy.core._dtype',
   'd:\\00.ws_chan\\03.pycharm_project\\imageconverter_comp\\proj\\lib\\site-packages\\numpy\\core\\_dtype.py',
   'PYMODULE'),
  ('numpy.core._type_aliases',
   'd:\\00.ws_chan\\03.pycharm_project\\imageconverter_comp\\proj\\lib\\site-packages\\numpy\\core\\_type_aliases.py',
   'PYMODULE'),
  ('numpy.core._string_helpers',
   'd:\\00.ws_chan\\03.pycharm_project\\imageconverter_comp\\proj\\lib\\site-packages\\numpy\\core\\_string_helpers.py',
   'PYMODULE'),
  ('numpy.matrixlib',
   'd:\\00.ws_chan\\03.pycharm_project\\imageconverter_comp\\proj\\lib\\site-packages\\numpy\\matrixlib\\__init__.py',
   'PYMODULE'),
  ('numpy.matrixlib.defmatrix',
   'd:\\00.ws_chan\\03.pycharm_project\\imageconverter_comp\\proj\\lib\\site-packages\\numpy\\matrixlib\\defmatrix.py',
   'PYMODULE'),
  ('numpy.ma',
   'd:\\00.ws_chan\\03.pycharm_project\\imageconverter_comp\\proj\\lib\\site-packages\\numpy\\ma\\__init__.py',
   'PYMODULE'),
  ('numpy.ma.extras',
   'd:\\00.ws_chan\\03.pycharm_project\\imageconverter_comp\\proj\\lib\\site-packages\\numpy\\ma\\extras.py',
   'PYMODULE'),
  ('numpy.lib.index_tricks',
   'd:\\00.ws_chan\\03.pycharm_project\\imageconverter_comp\\proj\\lib\\site-packages\\numpy\\lib\\index_tricks.py',
   'PYMODULE'),
  ('numpy.lib.function_base',
   'd:\\00.ws_chan\\03.pycharm_project\\imageconverter_comp\\proj\\lib\\site-packages\\numpy\\lib\\function_base.py',
   'PYMODULE'),
  ('numpy.lib.histograms',
   'd:\\00.ws_chan\\03.pycharm_project\\imageconverter_comp\\proj\\lib\\site-packages\\numpy\\lib\\histograms.py',
   'PYMODULE'),
  ('numpy.lib.twodim_base',
   'd:\\00.ws_chan\\03.pycharm_project\\imageconverter_comp\\proj\\lib\\site-packages\\numpy\\lib\\twodim_base.py',
   'PYMODULE'),
  ('numpy.core.function_base',
   'd:\\00.ws_chan\\03.pycharm_project\\imageconverter_comp\\proj\\lib\\site-packages\\numpy\\core\\function_base.py',
   'PYMODULE'),
  ('numpy.ma.core',
   'd:\\00.ws_chan\\03.pycharm_project\\imageconverter_comp\\proj\\lib\\site-packages\\numpy\\ma\\core.py',
   'PYMODULE'),
  ('numpy.core._internal',
   'd:\\00.ws_chan\\03.pycharm_project\\imageconverter_comp\\proj\\lib\\site-packages\\numpy\\core\\_internal.py',
   'PYMODULE'),
  ('numpy.ctypeslib',
   'd:\\00.ws_chan\\03.pycharm_project\\imageconverter_comp\\proj\\lib\\site-packages\\numpy\\ctypeslib.py',
   'PYMODULE'),
  ('numpy.random',
   'd:\\00.ws_chan\\03.pycharm_project\\imageconverter_comp\\proj\\lib\\site-packages\\numpy\\random\\__init__.py',
   'PYMODULE'),
  ('numpy.random._pickle',
   'd:\\00.ws_chan\\03.pycharm_project\\imageconverter_comp\\proj\\lib\\site-packages\\numpy\\random\\_pickle.py',
   'PYMODULE'),
  ('numpy.polynomial',
   'd:\\00.ws_chan\\03.pycharm_project\\imageconverter_comp\\proj\\lib\\site-packages\\numpy\\polynomial\\__init__.py',
   'PYMODULE'),
  ('numpy.polynomial._polybase',
   'd:\\00.ws_chan\\03.pycharm_project\\imageconverter_comp\\proj\\lib\\site-packages\\numpy\\polynomial\\_polybase.py',
   'PYMODULE'),
  ('numpy.polynomial.laguerre',
   'd:\\00.ws_chan\\03.pycharm_project\\imageconverter_comp\\proj\\lib\\site-packages\\numpy\\polynomial\\laguerre.py',
   'PYMODULE'),
  ('numpy.polynomial.hermite_e',
   'd:\\00.ws_chan\\03.pycharm_project\\imageconverter_comp\\proj\\lib\\site-packages\\numpy\\polynomial\\hermite_e.py',
   'PYMODULE'),
  ('numpy.polynomial.hermite',
   'd:\\00.ws_chan\\03.pycharm_project\\imageconverter_comp\\proj\\lib\\site-packages\\numpy\\polynomial\\hermite.py',
   'PYMODULE'),
  ('numpy.polynomial.legendre',
   'd:\\00.ws_chan\\03.pycharm_project\\imageconverter_comp\\proj\\lib\\site-packages\\numpy\\polynomial\\legendre.py',
   'PYMODULE'),
  ('numpy.polynomial.chebyshev',
   'd:\\00.ws_chan\\03.pycharm_project\\imageconverter_comp\\proj\\lib\\site-packages\\numpy\\polynomial\\chebyshev.py',
   'PYMODULE'),
  ('numpy.polynomial.polynomial',
   'd:\\00.ws_chan\\03.pycharm_project\\imageconverter_comp\\proj\\lib\\site-packages\\numpy\\polynomial\\polynomial.py',
   'PYMODULE'),
  ('numpy.polynomial.polyutils',
   'd:\\00.ws_chan\\03.pycharm_project\\imageconverter_comp\\proj\\lib\\site-packages\\numpy\\polynomial\\polyutils.py',
   'PYMODULE'),
  ('numpy.fft',
   'd:\\00.ws_chan\\03.pycharm_project\\imageconverter_comp\\proj\\lib\\site-packages\\numpy\\fft\\__init__.py',
   'PYMODULE'),
  ('numpy.fft.helper',
   'd:\\00.ws_chan\\03.pycharm_project\\imageconverter_comp\\proj\\lib\\site-packages\\numpy\\fft\\helper.py',
   'PYMODULE'),
  ('numpy.fft._pocketfft',
   'd:\\00.ws_chan\\03.pycharm_project\\imageconverter_comp\\proj\\lib\\site-packages\\numpy\\fft\\_pocketfft.py',
   'PYMODULE'),
  ('numpy.linalg',
   'd:\\00.ws_chan\\03.pycharm_project\\imageconverter_comp\\proj\\lib\\site-packages\\numpy\\linalg\\__init__.py',
   'PYMODULE'),
  ('numpy.linalg.linalg',
   'd:\\00.ws_chan\\03.pycharm_project\\imageconverter_comp\\proj\\lib\\site-packages\\numpy\\linalg\\linalg.py',
   'PYMODULE'),
  ('numpy.lib',
   'd:\\00.ws_chan\\03.pycharm_project\\imageconverter_comp\\proj\\lib\\site-packages\\numpy\\lib\\__init__.py',
   'PYMODULE'),
  ('numpy.lib._version',
   'd:\\00.ws_chan\\03.pycharm_project\\imageconverter_comp\\proj\\lib\\site-packages\\numpy\\lib\\_version.py',
   'PYMODULE'),
  ('numpy.lib.arraypad',
   'd:\\00.ws_chan\\03.pycharm_project\\imageconverter_comp\\proj\\lib\\site-packages\\numpy\\lib\\arraypad.py',
   'PYMODULE'),
  ('numpy.lib.arrayterator',
   'd:\\00.ws_chan\\03.pycharm_project\\imageconverter_comp\\proj\\lib\\site-packages\\numpy\\lib\\arrayterator.py',
   'PYMODULE'),
  ('numpy.lib.npyio',
   'd:\\00.ws_chan\\03.pycharm_project\\imageconverter_comp\\proj\\lib\\site-packages\\numpy\\lib\\npyio.py',
   'PYMODULE'),
  ('numpy.ma.mrecords',
   'd:\\00.ws_chan\\03.pycharm_project\\imageconverter_comp\\proj\\lib\\site-packages\\numpy\\ma\\mrecords.py',
   'PYMODULE'),
  ('numpy.core.records',
   'd:\\00.ws_chan\\03.pycharm_project\\imageconverter_comp\\proj\\lib\\site-packages\\numpy\\core\\records.py',
   'PYMODULE'),
  ('numpy.lib._iotools',
   'd:\\00.ws_chan\\03.pycharm_project\\imageconverter_comp\\proj\\lib\\site-packages\\numpy\\lib\\_iotools.py',
   'PYMODULE'),
  ('numpy.lib._datasource',
   'd:\\00.ws_chan\\03.pycharm_project\\imageconverter_comp\\proj\\lib\\site-packages\\numpy\\lib\\_datasource.py',
   'PYMODULE'),
  ('numpy.lib.format',
   'd:\\00.ws_chan\\03.pycharm_project\\imageconverter_comp\\proj\\lib\\site-packages\\numpy\\lib\\format.py',
   'PYMODULE'),
  ('numpy.lib.arraysetops',
   'd:\\00.ws_chan\\03.pycharm_project\\imageconverter_comp\\proj\\lib\\site-packages\\numpy\\lib\\arraysetops.py',
   'PYMODULE'),
  ('numpy.lib.utils',
   'd:\\00.ws_chan\\03.pycharm_project\\imageconverter_comp\\proj\\lib\\site-packages\\numpy\\lib\\utils.py',
   'PYMODULE'),
  ('numpy.lib.polynomial',
   'd:\\00.ws_chan\\03.pycharm_project\\imageconverter_comp\\proj\\lib\\site-packages\\numpy\\lib\\polynomial.py',
   'PYMODULE'),
  ('numpy.lib.ufunclike',
   'd:\\00.ws_chan\\03.pycharm_project\\imageconverter_comp\\proj\\lib\\site-packages\\numpy\\lib\\ufunclike.py',
   'PYMODULE'),
  ('numpy.lib.shape_base',
   'd:\\00.ws_chan\\03.pycharm_project\\imageconverter_comp\\proj\\lib\\site-packages\\numpy\\lib\\shape_base.py',
   'PYMODULE'),
  ('numpy.lib.nanfunctions',
   'd:\\00.ws_chan\\03.pycharm_project\\imageconverter_comp\\proj\\lib\\site-packages\\numpy\\lib\\nanfunctions.py',
   'PYMODULE'),
  ('numpy.lib.type_check',
   'd:\\00.ws_chan\\03.pycharm_project\\imageconverter_comp\\proj\\lib\\site-packages\\numpy\\lib\\type_check.py',
   'PYMODULE'),
  ('numpy.core.getlimits',
   'd:\\00.ws_chan\\03.pycharm_project\\imageconverter_comp\\proj\\lib\\site-packages\\numpy\\core\\getlimits.py',
   'PYMODULE'),
  ('numpy.core.machar',
   'd:\\00.ws_chan\\03.pycharm_project\\imageconverter_comp\\proj\\lib\\site-packages\\numpy\\core\\machar.py',
   'PYMODULE'),
  ('numpy.lib.scimath',
   'd:\\00.ws_chan\\03.pycharm_project\\imageconverter_comp\\proj\\lib\\site-packages\\numpy\\lib\\scimath.py',
   'PYMODULE'),
  ('numpy.lib.mixins',
   'd:\\00.ws_chan\\03.pycharm_project\\imageconverter_comp\\proj\\lib\\site-packages\\numpy\\lib\\mixins.py',
   'PYMODULE'),
  ('numpy.compat',
   'd:\\00.ws_chan\\03.pycharm_project\\imageconverter_comp\\proj\\lib\\site-packages\\numpy\\compat\\__init__.py',
   'PYMODULE'),
  ('numpy.compat.py3k',
   'd:\\00.ws_chan\\03.pycharm_project\\imageconverter_comp\\proj\\lib\\site-packages\\numpy\\compat\\py3k.py',
   'PYMODULE'),
  ('numpy.core',
   'd:\\00.ws_chan\\03.pycharm_project\\imageconverter_comp\\proj\\lib\\site-packages\\numpy\\core\\__init__.py',
   'PYMODULE'),
  ('numpy.core._add_newdocs_scalars',
   'd:\\00.ws_chan\\03.pycharm_project\\imageconverter_comp\\proj\\lib\\site-packages\\numpy\\core\\_add_newdocs_scalars.py',
   'PYMODULE'),
  ('numpy.core._add_newdocs',
   'd:\\00.ws_chan\\03.pycharm_project\\imageconverter_comp\\proj\\lib\\site-packages\\numpy\\core\\_add_newdocs.py',
   'PYMODULE'),
  ('numpy.core.einsumfunc',
   'd:\\00.ws_chan\\03.pycharm_project\\imageconverter_comp\\proj\\lib\\site-packages\\numpy\\core\\einsumfunc.py',
   'PYMODULE'),
  ('numpy.core.memmap',
   'd:\\00.ws_chan\\03.pycharm_project\\imageconverter_comp\\proj\\lib\\site-packages\\numpy\\core\\memmap.py',
   'PYMODULE'),
  ('numpy.core.defchararray',
   'd:\\00.ws_chan\\03.pycharm_project\\imageconverter_comp\\proj\\lib\\site-packages\\numpy\\core\\defchararray.py',
   'PYMODULE'),
  ('numpy._distributor_init',
   'd:\\00.ws_chan\\03.pycharm_project\\imageconverter_comp\\proj\\lib\\site-packages\\numpy\\_distributor_init.py',
   'PYMODULE'),
  ('numpy.version',
   'd:\\00.ws_chan\\03.pycharm_project\\imageconverter_comp\\proj\\lib\\site-packages\\numpy\\version.py',
   'PYMODULE'),
  ('numpy.__config__',
   'd:\\00.ws_chan\\03.pycharm_project\\imageconverter_comp\\proj\\lib\\site-packages\\numpy\\__config__.py',
   'PYMODULE'),
  ('numpy._globals',
   'd:\\00.ws_chan\\03.pycharm_project\\imageconverter_comp\\proj\\lib\\site-packages\\numpy\\_globals.py',
   'PYMODULE'),
  ('struct',
   'C:\\Users\\SoluM\\AppData\\Local\\Programs\\Python\\Python38\\lib\\struct.py',
   'PYMODULE')],
 [('PyQt5\\Qt\\plugins\\platformthemes\\qxdgdesktopportal.dll',
   'D:\\00.ws_chan\\03.pycharm_project\\imageconverter_comp\\proj\\lib\\site-packages\\PyQt5\\Qt5\\plugins\\platformthemes\\qxdgdesktopportal.dll',
   'BINARY'),
  ('PyQt5\\Qt\\plugins\\imageformats\\qsvg.dll',
   'D:\\00.ws_chan\\03.pycharm_project\\imageconverter_comp\\proj\\lib\\site-packages\\PyQt5\\Qt5\\plugins\\imageformats\\qsvg.dll',
   'BINARY'),
  ('PyQt5\\Qt\\plugins\\platforms\\qoffscreen.dll',
   'D:\\00.ws_chan\\03.pycharm_project\\imageconverter_comp\\proj\\lib\\site-packages\\PyQt5\\Qt5\\plugins\\platforms\\qoffscreen.dll',
   'BINARY'),
  ('PyQt5\\Qt\\plugins\\imageformats\\qwebp.dll',
   'D:\\00.ws_chan\\03.pycharm_project\\imageconverter_comp\\proj\\lib\\site-packages\\PyQt5\\Qt5\\plugins\\imageformats\\qwebp.dll',
   'BINARY'),
  ('PyQt5\\Qt\\plugins\\platforms\\qwindows.dll',
   'D:\\00.ws_chan\\03.pycharm_project\\imageconverter_comp\\proj\\lib\\site-packages\\PyQt5\\Qt5\\plugins\\platforms\\qwindows.dll',
   'BINARY'),
  ('PyQt5\\Qt\\plugins\\imageformats\\qtiff.dll',
   'D:\\00.ws_chan\\03.pycharm_project\\imageconverter_comp\\proj\\lib\\site-packages\\PyQt5\\Qt5\\plugins\\imageformats\\qtiff.dll',
   'BINARY'),
  ('PyQt5\\Qt\\plugins\\styles\\qwindowsvistastyle.dll',
   'D:\\00.ws_chan\\03.pycharm_project\\imageconverter_comp\\proj\\lib\\site-packages\\PyQt5\\Qt5\\plugins\\styles\\qwindowsvistastyle.dll',
   'BINARY'),
  ('PyQt5\\Qt\\plugins\\imageformats\\qgif.dll',
   'D:\\00.ws_chan\\03.pycharm_project\\imageconverter_comp\\proj\\lib\\site-packages\\PyQt5\\Qt5\\plugins\\imageformats\\qgif.dll',
   'BINARY'),
  ('PyQt5\\Qt\\plugins\\platforms\\qminimal.dll',
   'D:\\00.ws_chan\\03.pycharm_project\\imageconverter_comp\\proj\\lib\\site-packages\\PyQt5\\Qt5\\plugins\\platforms\\qminimal.dll',
   'BINARY'),
  ('PyQt5\\Qt\\plugins\\platforms\\qwebgl.dll',
   'D:\\00.ws_chan\\03.pycharm_project\\imageconverter_comp\\proj\\lib\\site-packages\\PyQt5\\Qt5\\plugins\\platforms\\qwebgl.dll',
   'BINARY'),
  ('PyQt5\\Qt\\plugins\\imageformats\\qicns.dll',
   'D:\\00.ws_chan\\03.pycharm_project\\imageconverter_comp\\proj\\lib\\site-packages\\PyQt5\\Qt5\\plugins\\imageformats\\qicns.dll',
   'BINARY'),
  ('libGLESv2.dll',
   'D:\\00.ws_chan\\03.pycharm_project\\imageconverter_comp\\proj\\lib\\site-packages\\PyQt5\\Qt5\\bin\\libGLESv2.dll',
   'BINARY'),
  ('PyQt5\\Qt\\plugins\\imageformats\\qtga.dll',
   'D:\\00.ws_chan\\03.pycharm_project\\imageconverter_comp\\proj\\lib\\site-packages\\PyQt5\\Qt5\\plugins\\imageformats\\qtga.dll',
   'BINARY'),
  ('libEGL.dll',
   'D:\\00.ws_chan\\03.pycharm_project\\imageconverter_comp\\proj\\lib\\site-packages\\PyQt5\\Qt5\\bin\\libEGL.dll',
   'BINARY'),
  ('libopenblas.GK7GX5KEQ4F6UYO3P26ULGBQYHGQO7J4.gfortran-win_amd64.dll',
   'd:\\00.ws_chan\\03.pycharm_project\\imageconverter_comp\\proj\\lib\\site-packages\\numpy\\.libs\\libopenblas.GK7GX5KEQ4F6UYO3P26ULGBQYHGQO7J4.gfortran-win_amd64.dll',
   'BINARY'),
  ('PyQt5\\Qt\\plugins\\imageformats\\qico.dll',
   'D:\\00.ws_chan\\03.pycharm_project\\imageconverter_comp\\proj\\lib\\site-packages\\PyQt5\\Qt5\\plugins\\imageformats\\qico.dll',
   'BINARY'),
  ('PyQt5\\Qt\\plugins\\imageformats\\qwbmp.dll',
   'D:\\00.ws_chan\\03.pycharm_project\\imageconverter_comp\\proj\\lib\\site-packages\\PyQt5\\Qt5\\plugins\\imageformats\\qwbmp.dll',
   'BINARY'),
  ('d3dcompiler_47.dll',
   'D:\\00.ws_chan\\03.pycharm_project\\imageconverter_comp\\proj\\lib\\site-packages\\PyQt5\\Qt5\\bin\\d3dcompiler_47.dll',
   'BINARY'),
  ('PyQt5\\Qt\\plugins\\imageformats\\qjpeg.dll',
   'D:\\00.ws_chan\\03.pycharm_project\\imageconverter_comp\\proj\\lib\\site-packages\\PyQt5\\Qt5\\plugins\\imageformats\\qjpeg.dll',
   'BINARY'),
  ('opengl32sw.dll',
   'D:\\00.ws_chan\\03.pycharm_project\\imageconverter_comp\\proj\\lib\\site-packages\\PyQt5\\Qt5\\bin\\opengl32sw.dll',
   'BINARY'),
  ('PyQt5\\Qt\\plugins\\iconengines\\qsvgicon.dll',
   'D:\\00.ws_chan\\03.pycharm_project\\imageconverter_comp\\proj\\lib\\site-packages\\PyQt5\\Qt5\\plugins\\iconengines\\qsvgicon.dll',
   'BINARY'),
  ('_multiprocessing',
   'C:\\Users\\SoluM\\AppData\\Local\\Programs\\Python\\Python38\\DLLs\\_multiprocessing.pyd',
   'EXTENSION'),
  ('_hashlib',
   'C:\\Users\\SoluM\\AppData\\Local\\Programs\\Python\\Python38\\DLLs\\_hashlib.pyd',
   'EXTENSION'),
  ('unicodedata',
   'C:\\Users\\SoluM\\AppData\\Local\\Programs\\Python\\Python38\\DLLs\\unicodedata.pyd',
   'EXTENSION'),
  ('select',
   'C:\\Users\\SoluM\\AppData\\Local\\Programs\\Python\\Python38\\DLLs\\select.pyd',
   'EXTENSION'),
  ('_socket',
   'C:\\Users\\SoluM\\AppData\\Local\\Programs\\Python\\Python38\\DLLs\\_socket.pyd',
   'EXTENSION'),
  ('_lzma',
   'C:\\Users\\SoluM\\AppData\\Local\\Programs\\Python\\Python38\\DLLs\\_lzma.pyd',
   'EXTENSION'),
  ('_bz2',
   'C:\\Users\\SoluM\\AppData\\Local\\Programs\\Python\\Python38\\DLLs\\_bz2.pyd',
   'EXTENSION'),
  ('_overlapped',
   'C:\\Users\\SoluM\\AppData\\Local\\Programs\\Python\\Python38\\DLLs\\_overlapped.pyd',
   'EXTENSION'),
  ('_ssl',
   'C:\\Users\\SoluM\\AppData\\Local\\Programs\\Python\\Python38\\DLLs\\_ssl.pyd',
   'EXTENSION'),
  ('_asyncio',
   'C:\\Users\\SoluM\\AppData\\Local\\Programs\\Python\\Python38\\DLLs\\_asyncio.pyd',
   'EXTENSION'),
  ('_queue',
   'C:\\Users\\SoluM\\AppData\\Local\\Programs\\Python\\Python38\\DLLs\\_queue.pyd',
   'EXTENSION'),
  ('pyexpat',
   'C:\\Users\\SoluM\\AppData\\Local\\Programs\\Python\\Python38\\DLLs\\pyexpat.pyd',
   'EXTENSION'),
  ('_decimal',
   'C:\\Users\\SoluM\\AppData\\Local\\Programs\\Python\\Python38\\DLLs\\_decimal.pyd',
   'EXTENSION'),
  ('_ctypes',
   'C:\\Users\\SoluM\\AppData\\Local\\Programs\\Python\\Python38\\DLLs\\_ctypes.pyd',
   'EXTENSION'),
  ('PIL._imagingtk',
   'd:\\00.ws_chan\\03.pycharm_project\\imageconverter_comp\\proj\\lib\\site-packages\\PIL\\_imagingtk.cp38-win_amd64.pyd',
   'EXTENSION'),
  ('PIL._webp',
   'd:\\00.ws_chan\\03.pycharm_project\\imageconverter_comp\\proj\\lib\\site-packages\\PIL\\_webp.cp38-win_amd64.pyd',
   'EXTENSION'),
  ('PIL._imaging',
   'd:\\00.ws_chan\\03.pycharm_project\\imageconverter_comp\\proj\\lib\\site-packages\\PIL\\_imaging.cp38-win_amd64.pyd',
   'EXTENSION'),
  ('_elementtree',
   'C:\\Users\\SoluM\\AppData\\Local\\Programs\\Python\\Python38\\DLLs\\_elementtree.pyd',
   'EXTENSION'),
  ('PyQt5.QtGui',
   'd:\\00.ws_chan\\03.pycharm_project\\imageconverter_comp\\proj\\lib\\site-packages\\PyQt5\\QtGui.pyd',
   'EXTENSION'),
  ('PyQt5.sip',
   'd:\\00.ws_chan\\03.pycharm_project\\imageconverter_comp\\proj\\lib\\site-packages\\PyQt5\\sip.cp38-win_amd64.pyd',
   'EXTENSION'),
  ('PyQt5.QtCore',
   'd:\\00.ws_chan\\03.pycharm_project\\imageconverter_comp\\proj\\lib\\site-packages\\PyQt5\\QtCore.pyd',
   'EXTENSION'),
  ('PyQt5.QtWidgets',
   'd:\\00.ws_chan\\03.pycharm_project\\imageconverter_comp\\proj\\lib\\site-packages\\PyQt5\\QtWidgets.pyd',
   'EXTENSION'),
  ('numpy.core._multiarray_umath',
   'd:\\00.ws_chan\\03.pycharm_project\\imageconverter_comp\\proj\\lib\\site-packages\\numpy\\core\\_multiarray_umath.cp38-win_amd64.pyd',
   'EXTENSION'),
  ('numpy.core._multiarray_tests',
   'd:\\00.ws_chan\\03.pycharm_project\\imageconverter_comp\\proj\\lib\\site-packages\\numpy\\core\\_multiarray_tests.cp38-win_amd64.pyd',
   'EXTENSION'),
  ('numpy.linalg.lapack_lite',
   'd:\\00.ws_chan\\03.pycharm_project\\imageconverter_comp\\proj\\lib\\site-packages\\numpy\\linalg\\lapack_lite.cp38-win_amd64.pyd',
   'EXTENSION'),
  ('numpy.random.mtrand',
   'd:\\00.ws_chan\\03.pycharm_project\\imageconverter_comp\\proj\\lib\\site-packages\\numpy\\random\\mtrand.cp38-win_amd64.pyd',
   'EXTENSION'),
  ('numpy.random._sfc64',
   'd:\\00.ws_chan\\03.pycharm_project\\imageconverter_comp\\proj\\lib\\site-packages\\numpy\\random\\_sfc64.cp38-win_amd64.pyd',
   'EXTENSION'),
  ('numpy.random._philox',
   'd:\\00.ws_chan\\03.pycharm_project\\imageconverter_comp\\proj\\lib\\site-packages\\numpy\\random\\_philox.cp38-win_amd64.pyd',
   'EXTENSION'),
  ('numpy.random._pcg64',
   'd:\\00.ws_chan\\03.pycharm_project\\imageconverter_comp\\proj\\lib\\site-packages\\numpy\\random\\_pcg64.cp38-win_amd64.pyd',
   'EXTENSION'),
  ('numpy.random._mt19937',
   'd:\\00.ws_chan\\03.pycharm_project\\imageconverter_comp\\proj\\lib\\site-packages\\numpy\\random\\_mt19937.cp38-win_amd64.pyd',
   'EXTENSION'),
  ('numpy.random.bit_generator',
   'd:\\00.ws_chan\\03.pycharm_project\\imageconverter_comp\\proj\\lib\\site-packages\\numpy\\random\\bit_generator.cp38-win_amd64.pyd',
   'EXTENSION'),
  ('numpy.random._generator',
   'd:\\00.ws_chan\\03.pycharm_project\\imageconverter_comp\\proj\\lib\\site-packages\\numpy\\random\\_generator.cp38-win_amd64.pyd',
   'EXTENSION'),
  ('numpy.random._bounded_integers',
   'd:\\00.ws_chan\\03.pycharm_project\\imageconverter_comp\\proj\\lib\\site-packages\\numpy\\random\\_bounded_integers.cp38-win_amd64.pyd',
   'EXTENSION'),
  ('numpy.random._common',
   'd:\\00.ws_chan\\03.pycharm_project\\imageconverter_comp\\proj\\lib\\site-packages\\numpy\\random\\_common.cp38-win_amd64.pyd',
   'EXTENSION'),
  ('numpy.fft._pocketfft_internal',
   'd:\\00.ws_chan\\03.pycharm_project\\imageconverter_comp\\proj\\lib\\site-packages\\numpy\\fft\\_pocketfft_internal.cp38-win_amd64.pyd',
   'EXTENSION'),
  ('numpy.linalg._umath_linalg',
   'd:\\00.ws_chan\\03.pycharm_project\\imageconverter_comp\\proj\\lib\\site-packages\\numpy\\linalg\\_umath_linalg.cp38-win_amd64.pyd',
   'EXTENSION'),
  ('Qt5DBus.dll',
   'd:\\00.ws_chan\\03.pycharm_project\\imageconverter_comp\\proj\\lib\\site-packages\\PyQt5\\Qt5\\bin\\Qt5DBus.dll',
   'BINARY'),
  ('Qt5Gui.dll',
   'd:\\00.ws_chan\\03.pycharm_project\\imageconverter_comp\\proj\\lib\\site-packages\\PyQt5\\Qt5\\bin\\Qt5Gui.dll',
   'BINARY'),
  ('VCRUNTIME140.dll',
   'C:\\Users\\SoluM\\AppData\\Local\\Programs\\Python\\Python38\\VCRUNTIME140.dll',
   'BINARY'),
  ('Qt5Core.dll',
   'd:\\00.ws_chan\\03.pycharm_project\\imageconverter_comp\\proj\\lib\\site-packages\\PyQt5\\Qt5\\bin\\Qt5Core.dll',
   'BINARY'),
  ('Qt5Svg.dll',
   'd:\\00.ws_chan\\03.pycharm_project\\imageconverter_comp\\proj\\lib\\site-packages\\PyQt5\\Qt5\\bin\\Qt5Svg.dll',
   'BINARY'),
  ('Qt5Widgets.dll',
   'd:\\00.ws_chan\\03.pycharm_project\\imageconverter_comp\\proj\\lib\\site-packages\\PyQt5\\Qt5\\bin\\Qt5Widgets.dll',
   'BINARY'),
  ('Qt5Quick.dll',
   'd:\\00.ws_chan\\03.pycharm_project\\imageconverter_comp\\proj\\lib\\site-packages\\PyQt5\\Qt5\\bin\\Qt5Quick.dll',
   'BINARY'),
  ('Qt5WebSockets.dll',
   'd:\\00.ws_chan\\03.pycharm_project\\imageconverter_comp\\proj\\lib\\site-packages\\PyQt5\\Qt5\\bin\\Qt5WebSockets.dll',
   'BINARY'),
  ('Qt5Network.dll',
   'd:\\00.ws_chan\\03.pycharm_project\\imageconverter_comp\\proj\\lib\\site-packages\\PyQt5\\Qt5\\bin\\Qt5Network.dll',
   'BINARY'),
  ('MSVCP140.dll',
   'D:\\00.ws_chan\\03.pycharm_project\\imageconverter_comp\\proj\\lib\\site-packages\\PyQt5\\Qt5\\bin\\MSVCP140.dll',
   'BINARY'),
  ('VCRUNTIME140_1.dll',
   'D:\\00.ws_chan\\03.pycharm_project\\imageconverter_comp\\proj\\lib\\site-packages\\PyQt5\\Qt5\\bin\\VCRUNTIME140_1.dll',
   'BINARY'),
  ('python38.dll',
   'C:\\Users\\SoluM\\AppData\\Local\\Programs\\Python\\Python38\\python38.dll',
   'BINARY'),
  ('libcrypto-1_1.dll',
   'C:\\Users\\SoluM\\AppData\\Local\\Programs\\Python\\Python38\\DLLs\\libcrypto-1_1.dll',
   'BINARY'),
  ('libssl-1_1.dll',
   'C:\\Users\\SoluM\\AppData\\Local\\Programs\\Python\\Python38\\DLLs\\libssl-1_1.dll',
   'BINARY'),
  ('libffi-7.dll',
   'C:\\Users\\SoluM\\AppData\\Local\\Programs\\Python\\Python38\\DLLs\\libffi-7.dll',
   'BINARY'),
  ('python3.dll',
   'C:\\Users\\SoluM\\AppData\\Local\\Programs\\Python\\Python38\\python3.dll',
   'BINARY'),
  ('MSVCP140_1.dll',
   'd:\\00.ws_chan\\03.pycharm_project\\imageconverter_comp\\proj\\lib\\site-packages\\PyQt5\\Qt5\\bin\\MSVCP140_1.dll',
   'BINARY'),
  ('Qt5QmlModels.dll',
   'd:\\00.ws_chan\\03.pycharm_project\\imageconverter_comp\\proj\\lib\\site-packages\\PyQt5\\Qt5\\bin\\Qt5QmlModels.dll',
   'BINARY'),
  ('Qt5Qml.dll',
   'd:\\00.ws_chan\\03.pycharm_project\\imageconverter_comp\\proj\\lib\\site-packages\\PyQt5\\Qt5\\bin\\Qt5Qml.dll',
   'BINARY')],
 [],
 [],
 [('base_library.zip',
   'D:\\00.ws_chan\\03.pycharm_project\\ImageConverter_Comp\\build\\ImageConverterAndCompress\\base_library.zip',
   'DATA'),
  ('PyQt5\\Qt\\translations\\qtbase_uk.qm',
   'D:\\00.ws_chan\\03.pycharm_project\\imageconverter_comp\\proj\\lib\\site-packages\\PyQt5\\Qt5\\translations\\qtbase_uk.qm',
   'DATA'),
  ('PyQt5\\Qt\\translations\\qtbase_ja.qm',
   'D:\\00.ws_chan\\03.pycharm_project\\imageconverter_comp\\proj\\lib\\site-packages\\PyQt5\\Qt5\\translations\\qtbase_ja.qm',
   'DATA'),
  ('PyQt5\\Qt\\translations\\qtbase_ru.qm',
   'D:\\00.ws_chan\\03.pycharm_project\\imageconverter_comp\\proj\\lib\\site-packages\\PyQt5\\Qt5\\translations\\qtbase_ru.qm',
   'DATA'),
  ('PyQt5\\Qt\\translations\\qtbase_es.qm',
   'D:\\00.ws_chan\\03.pycharm_project\\imageconverter_comp\\proj\\lib\\site-packages\\PyQt5\\Qt5\\translations\\qtbase_es.qm',
   'DATA'),
  ('PyQt5\\Qt\\translations\\qtbase_lv.qm',
   'D:\\00.ws_chan\\03.pycharm_project\\imageconverter_comp\\proj\\lib\\site-packages\\PyQt5\\Qt5\\translations\\qtbase_lv.qm',
   'DATA'),
  ('PyQt5\\Qt\\translations\\qtbase_ca.qm',
   'D:\\00.ws_chan\\03.pycharm_project\\imageconverter_comp\\proj\\lib\\site-packages\\PyQt5\\Qt5\\translations\\qtbase_ca.qm',
   'DATA'),
  ('PyQt5\\Qt\\translations\\qtbase_gd.qm',
   'D:\\00.ws_chan\\03.pycharm_project\\imageconverter_comp\\proj\\lib\\site-packages\\PyQt5\\Qt5\\translations\\qtbase_gd.qm',
   'DATA'),
  ('PyQt5\\Qt\\translations\\qtbase_fi.qm',
   'D:\\00.ws_chan\\03.pycharm_project\\imageconverter_comp\\proj\\lib\\site-packages\\PyQt5\\Qt5\\translations\\qtbase_fi.qm',
   'DATA'),
  ('PyQt5\\Qt\\translations\\qtbase_en.qm',
   'D:\\00.ws_chan\\03.pycharm_project\\imageconverter_comp\\proj\\lib\\site-packages\\PyQt5\\Qt5\\translations\\qtbase_en.qm',
   'DATA'),
  ('PyQt5\\Qt\\translations\\qtbase_it.qm',
   'D:\\00.ws_chan\\03.pycharm_project\\imageconverter_comp\\proj\\lib\\site-packages\\PyQt5\\Qt5\\translations\\qtbase_it.qm',
   'DATA'),
  ('PyQt5\\Qt\\translations\\qtbase_pl.qm',
   'D:\\00.ws_chan\\03.pycharm_project\\imageconverter_comp\\proj\\lib\\site-packages\\PyQt5\\Qt5\\translations\\qtbase_pl.qm',
   'DATA'),
  ('PyQt5\\Qt\\translations\\qtbase_cs.qm',
   'D:\\00.ws_chan\\03.pycharm_project\\imageconverter_comp\\proj\\lib\\site-packages\\PyQt5\\Qt5\\translations\\qtbase_cs.qm',
   'DATA'),
  ('PyQt5\\Qt\\translations\\qtbase_tr.qm',
   'D:\\00.ws_chan\\03.pycharm_project\\imageconverter_comp\\proj\\lib\\site-packages\\PyQt5\\Qt5\\translations\\qtbase_tr.qm',
   'DATA'),
  ('PyQt5\\Qt\\translations\\qtbase_da.qm',
   'D:\\00.ws_chan\\03.pycharm_project\\imageconverter_comp\\proj\\lib\\site-packages\\PyQt5\\Qt5\\translations\\qtbase_da.qm',
   'DATA'),
  ('PyQt5\\Qt\\translations\\qtbase_hu.qm',
   'D:\\00.ws_chan\\03.pycharm_project\\imageconverter_comp\\proj\\lib\\site-packages\\PyQt5\\Qt5\\translations\\qtbase_hu.qm',
   'DATA'),
  ('PyQt5\\Qt\\translations\\qtbase_de.qm',
   'D:\\00.ws_chan\\03.pycharm_project\\imageconverter_comp\\proj\\lib\\site-packages\\PyQt5\\Qt5\\translations\\qtbase_de.qm',
   'DATA'),
  ('PyQt5\\Qt\\translations\\qtbase_bg.qm',
   'D:\\00.ws_chan\\03.pycharm_project\\imageconverter_comp\\proj\\lib\\site-packages\\PyQt5\\Qt5\\translations\\qtbase_bg.qm',
   'DATA'),
  ('PyQt5\\Qt\\translations\\qtbase_ko.qm',
   'D:\\00.ws_chan\\03.pycharm_project\\imageconverter_comp\\proj\\lib\\site-packages\\PyQt5\\Qt5\\translations\\qtbase_ko.qm',
   'DATA'),
  ('PyQt5\\Qt\\translations\\qtbase_he.qm',
   'D:\\00.ws_chan\\03.pycharm_project\\imageconverter_comp\\proj\\lib\\site-packages\\PyQt5\\Qt5\\translations\\qtbase_he.qm',
   'DATA'),
  ('PyQt5\\Qt\\translations\\qtbase_ar.qm',
   'D:\\00.ws_chan\\03.pycharm_project\\imageconverter_comp\\proj\\lib\\site-packages\\PyQt5\\Qt5\\translations\\qtbase_ar.qm',
   'DATA'),
  ('PyQt5\\Qt\\translations\\qtbase_zh_TW.qm',
   'D:\\00.ws_chan\\03.pycharm_project\\imageconverter_comp\\proj\\lib\\site-packages\\PyQt5\\Qt5\\translations\\qtbase_zh_TW.qm',
   'DATA'),
  ('PyQt5\\Qt\\translations\\qtbase_fr.qm',
   'D:\\00.ws_chan\\03.pycharm_project\\imageconverter_comp\\proj\\lib\\site-packages\\PyQt5\\Qt5\\translations\\qtbase_fr.qm',
   'DATA'),
  ('PyQt5\\Qt\\translations\\qtbase_sk.qm',
   'D:\\00.ws_chan\\03.pycharm_project\\imageconverter_comp\\proj\\lib\\site-packages\\PyQt5\\Qt5\\translations\\qtbase_sk.qm',
   'DATA')],
 [])
