('D:\\00.ws_chan\\03.pycharm_project\\ImageConverter_Comp\\dist\\ImageConverterAndCompress.exe',
 False,
 False,
 False,
 'd:\\00.ws_chan\\03.pycharm_project\\imageconverter_comp\\proj\\lib\\site-packages\\PyInstaller\\bootloader\\images\\icon-windowed.ico',
 None,
 False,
 False,
 '<?xml version="1.0" encoding="UTF-8" standalone="yes"?><assembly xmlns="urn:schemas-microsoft-com:asm.v1" manifestVersion="1.0"><assemblyIdentity type="win32" name="ImageConverterAndCompress" processorArchitecture="amd64" version="1.0.0.0"/><trustInfo xmlns="urn:schemas-microsoft-com:asm.v3"><security><requestedPrivileges><requestedExecutionLevel level="asInvoker" uiAccess="false"/></requestedPrivileges></security></trustInfo><dependency><dependentAssembly><assemblyIdentity type="win32" name="Microsoft.Windows.Common-Controls" language="*" processorArchitecture="*" version="6.0.0.0" publicKeyToken="6595b64144ccf1df"/><compatibility xmlns="urn:schemas-microsoft-com:compatibility.v1"/></dependentAssembly></dependency><compatibility xmlns="urn:schemas-microsoft-com:compatibility.v1"><application><supportedOS Id="{e2011457-1546-43c5-a5fe-008deee3d3f0}"/><supportedOS Id="{35138b9a-5d96-4fbd-8e2d-a2440225f93a}"/><supportedOS Id="{4a2f28e3-53b9-4441-ba9c-d69d4a4a6e38}"/><supportedOS Id="{1f676c76-80e1-4239-95bb-83d0f6d0da78}"/><supportedOS Id="{8e0f7a12-bfb3-4fe8-b9a5-48fd50a15a9a}"/></application></compatibility><application xmlns="urn:schemas-microsoft-com:asm.v3"><windowsSettings><longPathAware xmlns="http://schemas.microsoft.com/SMI/2016/WindowsSettings">true</longPathAware></windowsSettings></application></assembly>',
 True,
 'ImageConverterAndCompress.pkg',
 [('PYZ-00.pyz',
   'D:\\00.ws_chan\\03.pycharm_project\\ImageConverter_Comp\\build\\ImageConverterAndCompress\\PYZ-00.pyz',
   'PYZ'),
  ('struct',
   'C:\\Users\\SoluM\\AppData\\Local\\Programs\\Python\\Python38\\lib\\struct.pyo',
   'PYMODULE'),
  ('pyimod01_os_path',
   'd:\\00.ws_chan\\03.pycharm_project\\imageconverter_comp\\proj\\lib\\site-packages\\PyInstaller\\loader\\pyimod01_os_path.pyc',
   'PYMODULE'),
  ('pyimod02_archive',
   'd:\\00.ws_chan\\03.pycharm_project\\imageconverter_comp\\proj\\lib\\site-packages\\PyInstaller\\loader\\pyimod02_archive.pyc',
   'PYMODULE'),
  ('pyimod03_importers',
   'd:\\00.ws_chan\\03.pycharm_project\\imageconverter_comp\\proj\\lib\\site-packages\\PyInstaller\\loader\\pyimod03_importers.pyc',
   'PYMODULE'),
  ('pyiboot01_bootstrap',
   'd:\\00.ws_chan\\03.pycharm_project\\imageconverter_comp\\proj\\lib\\site-packages\\PyInstaller\\loader\\pyiboot01_bootstrap.py',
   'PYSOURCE'),
  ('pyi_rth_multiprocessing',
   'D:\\00.ws_chan\\03.pycharm_project\\ImageConverter_Comp\\proj\\Lib\\site-packages\\PyInstaller\\hooks\\rthooks\\pyi_rth_multiprocessing.py',
   'PYSOURCE'),
  ('pyi_rth_pyqt5',
   'D:\\00.ws_chan\\03.pycharm_project\\ImageConverter_Comp\\proj\\Lib\\site-packages\\PyInstaller\\hooks\\rthooks\\pyi_rth_pyqt5.py',
   'PYSOURCE'),
  ('ImageConverterAndCompress',
   'D:\\00.ws_chan\\03.pycharm_project\\ImageConverter_Comp\\ImageConverterAndCompress.py',
   'PYSOURCE'),
  ('PyQt5\\Qt\\plugins\\platformthemes\\qxdgdesktopportal.dll',
   'D:\\00.ws_chan\\03.pycharm_project\\imageconverter_comp\\proj\\lib\\site-packages\\PyQt5\\Qt5\\plugins\\platformthemes\\qxdgdesktopportal.dll',
   'BINARY'),
  ('PyQt5\\Qt\\plugins\\imageformats\\qsvg.dll',
   'D:\\00.ws_chan\\03.pycharm_project\\imageconverter_comp\\proj\\lib\\site-packages\\PyQt5\\Qt5\\plugins\\imageformats\\qsvg.dll',
   'BINARY'),
  ('PyQt5\\Qt\\plugins\\platforms\\qoffscreen.dll',
   'D:\\00.ws_chan\\03.pycharm_project\\imageconverter_comp\\proj\\lib\\site-packages\\PyQt5\\Qt5\\plugins\\platforms\\qoffscreen.dll',
   'BINARY'),
  ('PyQt5\\Qt\\plugins\\imageformats\\qwebp.dll',
   'D:\\00.ws_chan\\03.pycharm_project\\imageconverter_comp\\proj\\lib\\site-packages\\PyQt5\\Qt5\\plugins\\imageformats\\qwebp.dll',
   'BINARY'),
  ('PyQt5\\Qt\\plugins\\platforms\\qwindows.dll',
   'D:\\00.ws_chan\\03.pycharm_project\\imageconverter_comp\\proj\\lib\\site-packages\\PyQt5\\Qt5\\plugins\\platforms\\qwindows.dll',
   'BINARY'),
  ('PyQt5\\Qt\\plugins\\imageformats\\qtiff.dll',
   'D:\\00.ws_chan\\03.pycharm_project\\imageconverter_comp\\proj\\lib\\site-packages\\PyQt5\\Qt5\\plugins\\imageformats\\qtiff.dll',
   'BINARY'),
  ('PyQt5\\Qt\\plugins\\styles\\qwindowsvistastyle.dll',
   'D:\\00.ws_chan\\03.pycharm_project\\imageconverter_comp\\proj\\lib\\site-packages\\PyQt5\\Qt5\\plugins\\styles\\qwindowsvistastyle.dll',
   'BINARY'),
  ('PyQt5\\Qt\\plugins\\imageformats\\qgif.dll',
   'D:\\00.ws_chan\\03.pycharm_project\\imageconverter_comp\\proj\\lib\\site-packages\\PyQt5\\Qt5\\plugins\\imageformats\\qgif.dll',
   'BINARY'),
  ('PyQt5\\Qt\\plugins\\platforms\\qminimal.dll',
   'D:\\00.ws_chan\\03.pycharm_project\\imageconverter_comp\\proj\\lib\\site-packages\\PyQt5\\Qt5\\plugins\\platforms\\qminimal.dll',
   'BINARY'),
  ('PyQt5\\Qt\\plugins\\platforms\\qwebgl.dll',
   'D:\\00.ws_chan\\03.pycharm_project\\imageconverter_comp\\proj\\lib\\site-packages\\PyQt5\\Qt5\\plugins\\platforms\\qwebgl.dll',
   'BINARY'),
  ('PyQt5\\Qt\\plugins\\imageformats\\qicns.dll',
   'D:\\00.ws_chan\\03.pycharm_project\\imageconverter_comp\\proj\\lib\\site-packages\\PyQt5\\Qt5\\plugins\\imageformats\\qicns.dll',
   'BINARY'),
  ('libGLESv2.dll',
   'D:\\00.ws_chan\\03.pycharm_project\\imageconverter_comp\\proj\\lib\\site-packages\\PyQt5\\Qt5\\bin\\libGLESv2.dll',
   'BINARY'),
  ('PyQt5\\Qt\\plugins\\imageformats\\qtga.dll',
   'D:\\00.ws_chan\\03.pycharm_project\\imageconverter_comp\\proj\\lib\\site-packages\\PyQt5\\Qt5\\plugins\\imageformats\\qtga.dll',
   'BINARY'),
  ('libEGL.dll',
   'D:\\00.ws_chan\\03.pycharm_project\\imageconverter_comp\\proj\\lib\\site-packages\\PyQt5\\Qt5\\bin\\libEGL.dll',
   'BINARY'),
  ('libopenblas.GK7GX5KEQ4F6UYO3P26ULGBQYHGQO7J4.gfortran-win_amd64.dll',
   'd:\\00.ws_chan\\03.pycharm_project\\imageconverter_comp\\proj\\lib\\site-packages\\numpy\\.libs\\libopenblas.GK7GX5KEQ4F6UYO3P26ULGBQYHGQO7J4.gfortran-win_amd64.dll',
   'BINARY'),
  ('PyQt5\\Qt\\plugins\\imageformats\\qico.dll',
   'D:\\00.ws_chan\\03.pycharm_project\\imageconverter_comp\\proj\\lib\\site-packages\\PyQt5\\Qt5\\plugins\\imageformats\\qico.dll',
   'BINARY'),
  ('PyQt5\\Qt\\plugins\\imageformats\\qwbmp.dll',
   'D:\\00.ws_chan\\03.pycharm_project\\imageconverter_comp\\proj\\lib\\site-packages\\PyQt5\\Qt5\\plugins\\imageformats\\qwbmp.dll',
   'BINARY'),
  ('d3dcompiler_47.dll',
   'D:\\00.ws_chan\\03.pycharm_project\\imageconverter_comp\\proj\\lib\\site-packages\\PyQt5\\Qt5\\bin\\d3dcompiler_47.dll',
   'BINARY'),
  ('PyQt5\\Qt\\plugins\\imageformats\\qjpeg.dll',
   'D:\\00.ws_chan\\03.pycharm_project\\imageconverter_comp\\proj\\lib\\site-packages\\PyQt5\\Qt5\\plugins\\imageformats\\qjpeg.dll',
   'BINARY'),
  ('opengl32sw.dll',
   'D:\\00.ws_chan\\03.pycharm_project\\imageconverter_comp\\proj\\lib\\site-packages\\PyQt5\\Qt5\\bin\\opengl32sw.dll',
   'BINARY'),
  ('PyQt5\\Qt\\plugins\\iconengines\\qsvgicon.dll',
   'D:\\00.ws_chan\\03.pycharm_project\\imageconverter_comp\\proj\\lib\\site-packages\\PyQt5\\Qt5\\plugins\\iconengines\\qsvgicon.dll',
   'BINARY'),
  ('_multiprocessing',
   'C:\\Users\\SoluM\\AppData\\Local\\Programs\\Python\\Python38\\DLLs\\_multiprocessing.pyd',
   'EXTENSION'),
  ('_hashlib',
   'C:\\Users\\SoluM\\AppData\\Local\\Programs\\Python\\Python38\\DLLs\\_hashlib.pyd',
   'EXTENSION'),
  ('unicodedata',
   'C:\\Users\\SoluM\\AppData\\Local\\Programs\\Python\\Python38\\DLLs\\unicodedata.pyd',
   'EXTENSION'),
  ('select',
   'C:\\Users\\SoluM\\AppData\\Local\\Programs\\Python\\Python38\\DLLs\\select.pyd',
   'EXTENSION'),
  ('_socket',
   'C:\\Users\\SoluM\\AppData\\Local\\Programs\\Python\\Python38\\DLLs\\_socket.pyd',
   'EXTENSION'),
  ('_lzma',
   'C:\\Users\\SoluM\\AppData\\Local\\Programs\\Python\\Python38\\DLLs\\_lzma.pyd',
   'EXTENSION'),
  ('_bz2',
   'C:\\Users\\SoluM\\AppData\\Local\\Programs\\Python\\Python38\\DLLs\\_bz2.pyd',
   'EXTENSION'),
  ('_overlapped',
   'C:\\Users\\SoluM\\AppData\\Local\\Programs\\Python\\Python38\\DLLs\\_overlapped.pyd',
   'EXTENSION'),
  ('_ssl',
   'C:\\Users\\SoluM\\AppData\\Local\\Programs\\Python\\Python38\\DLLs\\_ssl.pyd',
   'EXTENSION'),
  ('_asyncio',
   'C:\\Users\\SoluM\\AppData\\Local\\Programs\\Python\\Python38\\DLLs\\_asyncio.pyd',
   'EXTENSION'),
  ('_queue',
   'C:\\Users\\SoluM\\AppData\\Local\\Programs\\Python\\Python38\\DLLs\\_queue.pyd',
   'EXTENSION'),
  ('pyexpat',
   'C:\\Users\\SoluM\\AppData\\Local\\Programs\\Python\\Python38\\DLLs\\pyexpat.pyd',
   'EXTENSION'),
  ('_decimal',
   'C:\\Users\\SoluM\\AppData\\Local\\Programs\\Python\\Python38\\DLLs\\_decimal.pyd',
   'EXTENSION'),
  ('_ctypes',
   'C:\\Users\\SoluM\\AppData\\Local\\Programs\\Python\\Python38\\DLLs\\_ctypes.pyd',
   'EXTENSION'),
  ('PIL._imagingtk',
   'd:\\00.ws_chan\\03.pycharm_project\\imageconverter_comp\\proj\\lib\\site-packages\\PIL\\_imagingtk.cp38-win_amd64.pyd',
   'EXTENSION'),
  ('PIL._webp',
   'd:\\00.ws_chan\\03.pycharm_project\\imageconverter_comp\\proj\\lib\\site-packages\\PIL\\_webp.cp38-win_amd64.pyd',
   'EXTENSION'),
  ('PIL._imaging',
   'd:\\00.ws_chan\\03.pycharm_project\\imageconverter_comp\\proj\\lib\\site-packages\\PIL\\_imaging.cp38-win_amd64.pyd',
   'EXTENSION'),
  ('_elementtree',
   'C:\\Users\\SoluM\\AppData\\Local\\Programs\\Python\\Python38\\DLLs\\_elementtree.pyd',
   'EXTENSION'),
  ('PyQt5.QtGui',
   'd:\\00.ws_chan\\03.pycharm_project\\imageconverter_comp\\proj\\lib\\site-packages\\PyQt5\\QtGui.pyd',
   'EXTENSION'),
  ('PyQt5.sip',
   'd:\\00.ws_chan\\03.pycharm_project\\imageconverter_comp\\proj\\lib\\site-packages\\PyQt5\\sip.cp38-win_amd64.pyd',
   'EXTENSION'),
  ('PyQt5.QtCore',
   'd:\\00.ws_chan\\03.pycharm_project\\imageconverter_comp\\proj\\lib\\site-packages\\PyQt5\\QtCore.pyd',
   'EXTENSION'),
  ('PyQt5.QtWidgets',
   'd:\\00.ws_chan\\03.pycharm_project\\imageconverter_comp\\proj\\lib\\site-packages\\PyQt5\\QtWidgets.pyd',
   'EXTENSION'),
  ('numpy.core._multiarray_umath',
   'd:\\00.ws_chan\\03.pycharm_project\\imageconverter_comp\\proj\\lib\\site-packages\\numpy\\core\\_multiarray_umath.cp38-win_amd64.pyd',
   'EXTENSION'),
  ('numpy.core._multiarray_tests',
   'd:\\00.ws_chan\\03.pycharm_project\\imageconverter_comp\\proj\\lib\\site-packages\\numpy\\core\\_multiarray_tests.cp38-win_amd64.pyd',
   'EXTENSION'),
  ('numpy.linalg.lapack_lite',
   'd:\\00.ws_chan\\03.pycharm_project\\imageconverter_comp\\proj\\lib\\site-packages\\numpy\\linalg\\lapack_lite.cp38-win_amd64.pyd',
   'EXTENSION'),
  ('numpy.random.mtrand',
   'd:\\00.ws_chan\\03.pycharm_project\\imageconverter_comp\\proj\\lib\\site-packages\\numpy\\random\\mtrand.cp38-win_amd64.pyd',
   'EXTENSION'),
  ('numpy.random._sfc64',
   'd:\\00.ws_chan\\03.pycharm_project\\imageconverter_comp\\proj\\lib\\site-packages\\numpy\\random\\_sfc64.cp38-win_amd64.pyd',
   'EXTENSION'),
  ('numpy.random._philox',
   'd:\\00.ws_chan\\03.pycharm_project\\imageconverter_comp\\proj\\lib\\site-packages\\numpy\\random\\_philox.cp38-win_amd64.pyd',
   'EXTENSION'),
  ('numpy.random._pcg64',
   'd:\\00.ws_chan\\03.pycharm_project\\imageconverter_comp\\proj\\lib\\site-packages\\numpy\\random\\_pcg64.cp38-win_amd64.pyd',
   'EXTENSION'),
  ('numpy.random._mt19937',
   'd:\\00.ws_chan\\03.pycharm_project\\imageconverter_comp\\proj\\lib\\site-packages\\numpy\\random\\_mt19937.cp38-win_amd64.pyd',
   'EXTENSION'),
  ('numpy.random.bit_generator',
   'd:\\00.ws_chan\\03.pycharm_project\\imageconverter_comp\\proj\\lib\\site-packages\\numpy\\random\\bit_generator.cp38-win_amd64.pyd',
   'EXTENSION'),
  ('numpy.random._generator',
   'd:\\00.ws_chan\\03.pycharm_project\\imageconverter_comp\\proj\\lib\\site-packages\\numpy\\random\\_generator.cp38-win_amd64.pyd',
   'EXTENSION'),
  ('numpy.random._bounded_integers',
   'd:\\00.ws_chan\\03.pycharm_project\\imageconverter_comp\\proj\\lib\\site-packages\\numpy\\random\\_bounded_integers.cp38-win_amd64.pyd',
   'EXTENSION'),
  ('numpy.random._common',
   'd:\\00.ws_chan\\03.pycharm_project\\imageconverter_comp\\proj\\lib\\site-packages\\numpy\\random\\_common.cp38-win_amd64.pyd',
   'EXTENSION'),
  ('numpy.fft._pocketfft_internal',
   'd:\\00.ws_chan\\03.pycharm_project\\imageconverter_comp\\proj\\lib\\site-packages\\numpy\\fft\\_pocketfft_internal.cp38-win_amd64.pyd',
   'EXTENSION'),
  ('numpy.linalg._umath_linalg',
   'd:\\00.ws_chan\\03.pycharm_project\\imageconverter_comp\\proj\\lib\\site-packages\\numpy\\linalg\\_umath_linalg.cp38-win_amd64.pyd',
   'EXTENSION'),
  ('Qt5DBus.dll',
   'd:\\00.ws_chan\\03.pycharm_project\\imageconverter_comp\\proj\\lib\\site-packages\\PyQt5\\Qt5\\bin\\Qt5DBus.dll',
   'BINARY'),
  ('Qt5Gui.dll',
   'd:\\00.ws_chan\\03.pycharm_project\\imageconverter_comp\\proj\\lib\\site-packages\\PyQt5\\Qt5\\bin\\Qt5Gui.dll',
   'BINARY'),
  ('VCRUNTIME140.dll',
   'C:\\Users\\SoluM\\AppData\\Local\\Programs\\Python\\Python38\\VCRUNTIME140.dll',
   'BINARY'),
  ('Qt5Core.dll',
   'd:\\00.ws_chan\\03.pycharm_project\\imageconverter_comp\\proj\\lib\\site-packages\\PyQt5\\Qt5\\bin\\Qt5Core.dll',
   'BINARY'),
  ('Qt5Svg.dll',
   'd:\\00.ws_chan\\03.pycharm_project\\imageconverter_comp\\proj\\lib\\site-packages\\PyQt5\\Qt5\\bin\\Qt5Svg.dll',
   'BINARY'),
  ('Qt5Widgets.dll',
   'd:\\00.ws_chan\\03.pycharm_project\\imageconverter_comp\\proj\\lib\\site-packages\\PyQt5\\Qt5\\bin\\Qt5Widgets.dll',
   'BINARY'),
  ('Qt5Quick.dll',
   'd:\\00.ws_chan\\03.pycharm_project\\imageconverter_comp\\proj\\lib\\site-packages\\PyQt5\\Qt5\\bin\\Qt5Quick.dll',
   'BINARY'),
  ('Qt5WebSockets.dll',
   'd:\\00.ws_chan\\03.pycharm_project\\imageconverter_comp\\proj\\lib\\site-packages\\PyQt5\\Qt5\\bin\\Qt5WebSockets.dll',
   'BINARY'),
  ('Qt5Network.dll',
   'd:\\00.ws_chan\\03.pycharm_project\\imageconverter_comp\\proj\\lib\\site-packages\\PyQt5\\Qt5\\bin\\Qt5Network.dll',
   'BINARY'),
  ('MSVCP140.dll',
   'D:\\00.ws_chan\\03.pycharm_project\\imageconverter_comp\\proj\\lib\\site-packages\\PyQt5\\Qt5\\bin\\MSVCP140.dll',
   'BINARY'),
  ('VCRUNTIME140_1.dll',
   'D:\\00.ws_chan\\03.pycharm_project\\imageconverter_comp\\proj\\lib\\site-packages\\PyQt5\\Qt5\\bin\\VCRUNTIME140_1.dll',
   'BINARY'),
  ('python38.dll',
   'C:\\Users\\SoluM\\AppData\\Local\\Programs\\Python\\Python38\\python38.dll',
   'BINARY'),
  ('libcrypto-1_1.dll',
   'C:\\Users\\SoluM\\AppData\\Local\\Programs\\Python\\Python38\\DLLs\\libcrypto-1_1.dll',
   'BINARY'),
  ('libssl-1_1.dll',
   'C:\\Users\\SoluM\\AppData\\Local\\Programs\\Python\\Python38\\DLLs\\libssl-1_1.dll',
   'BINARY'),
  ('libffi-7.dll',
   'C:\\Users\\SoluM\\AppData\\Local\\Programs\\Python\\Python38\\DLLs\\libffi-7.dll',
   'BINARY'),
  ('python3.dll',
   'C:\\Users\\SoluM\\AppData\\Local\\Programs\\Python\\Python38\\python3.dll',
   'BINARY'),
  ('MSVCP140_1.dll',
   'd:\\00.ws_chan\\03.pycharm_project\\imageconverter_comp\\proj\\lib\\site-packages\\PyQt5\\Qt5\\bin\\MSVCP140_1.dll',
   'BINARY'),
  ('Qt5QmlModels.dll',
   'd:\\00.ws_chan\\03.pycharm_project\\imageconverter_comp\\proj\\lib\\site-packages\\PyQt5\\Qt5\\bin\\Qt5QmlModels.dll',
   'BINARY'),
  ('Qt5Qml.dll',
   'd:\\00.ws_chan\\03.pycharm_project\\imageconverter_comp\\proj\\lib\\site-packages\\PyQt5\\Qt5\\bin\\Qt5Qml.dll',
   'BINARY'),
  ('base_library.zip',
   'D:\\00.ws_chan\\03.pycharm_project\\ImageConverter_Comp\\build\\ImageConverterAndCompress\\base_library.zip',
   'DATA'),
  ('PyQt5\\Qt\\translations\\qtbase_uk.qm',
   'D:\\00.ws_chan\\03.pycharm_project\\imageconverter_comp\\proj\\lib\\site-packages\\PyQt5\\Qt5\\translations\\qtbase_uk.qm',
   'DATA'),
  ('PyQt5\\Qt\\translations\\qtbase_ja.qm',
   'D:\\00.ws_chan\\03.pycharm_project\\imageconverter_comp\\proj\\lib\\site-packages\\PyQt5\\Qt5\\translations\\qtbase_ja.qm',
   'DATA'),
  ('PyQt5\\Qt\\translations\\qtbase_ru.qm',
   'D:\\00.ws_chan\\03.pycharm_project\\imageconverter_comp\\proj\\lib\\site-packages\\PyQt5\\Qt5\\translations\\qtbase_ru.qm',
   'DATA'),
  ('PyQt5\\Qt\\translations\\qtbase_es.qm',
   'D:\\00.ws_chan\\03.pycharm_project\\imageconverter_comp\\proj\\lib\\site-packages\\PyQt5\\Qt5\\translations\\qtbase_es.qm',
   'DATA'),
  ('PyQt5\\Qt\\translations\\qtbase_lv.qm',
   'D:\\00.ws_chan\\03.pycharm_project\\imageconverter_comp\\proj\\lib\\site-packages\\PyQt5\\Qt5\\translations\\qtbase_lv.qm',
   'DATA'),
  ('PyQt5\\Qt\\translations\\qtbase_ca.qm',
   'D:\\00.ws_chan\\03.pycharm_project\\imageconverter_comp\\proj\\lib\\site-packages\\PyQt5\\Qt5\\translations\\qtbase_ca.qm',
   'DATA'),
  ('PyQt5\\Qt\\translations\\qtbase_gd.qm',
   'D:\\00.ws_chan\\03.pycharm_project\\imageconverter_comp\\proj\\lib\\site-packages\\PyQt5\\Qt5\\translations\\qtbase_gd.qm',
   'DATA'),
  ('PyQt5\\Qt\\translations\\qtbase_fi.qm',
   'D:\\00.ws_chan\\03.pycharm_project\\imageconverter_comp\\proj\\lib\\site-packages\\PyQt5\\Qt5\\translations\\qtbase_fi.qm',
   'DATA'),
  ('PyQt5\\Qt\\translations\\qtbase_en.qm',
   'D:\\00.ws_chan\\03.pycharm_project\\imageconverter_comp\\proj\\lib\\site-packages\\PyQt5\\Qt5\\translations\\qtbase_en.qm',
   'DATA'),
  ('PyQt5\\Qt\\translations\\qtbase_it.qm',
   'D:\\00.ws_chan\\03.pycharm_project\\imageconverter_comp\\proj\\lib\\site-packages\\PyQt5\\Qt5\\translations\\qtbase_it.qm',
   'DATA'),
  ('PyQt5\\Qt\\translations\\qtbase_pl.qm',
   'D:\\00.ws_chan\\03.pycharm_project\\imageconverter_comp\\proj\\lib\\site-packages\\PyQt5\\Qt5\\translations\\qtbase_pl.qm',
   'DATA'),
  ('PyQt5\\Qt\\translations\\qtbase_cs.qm',
   'D:\\00.ws_chan\\03.pycharm_project\\imageconverter_comp\\proj\\lib\\site-packages\\PyQt5\\Qt5\\translations\\qtbase_cs.qm',
   'DATA'),
  ('PyQt5\\Qt\\translations\\qtbase_tr.qm',
   'D:\\00.ws_chan\\03.pycharm_project\\imageconverter_comp\\proj\\lib\\site-packages\\PyQt5\\Qt5\\translations\\qtbase_tr.qm',
   'DATA'),
  ('PyQt5\\Qt\\translations\\qtbase_da.qm',
   'D:\\00.ws_chan\\03.pycharm_project\\imageconverter_comp\\proj\\lib\\site-packages\\PyQt5\\Qt5\\translations\\qtbase_da.qm',
   'DATA'),
  ('PyQt5\\Qt\\translations\\qtbase_hu.qm',
   'D:\\00.ws_chan\\03.pycharm_project\\imageconverter_comp\\proj\\lib\\site-packages\\PyQt5\\Qt5\\translations\\qtbase_hu.qm',
   'DATA'),
  ('PyQt5\\Qt\\translations\\qtbase_de.qm',
   'D:\\00.ws_chan\\03.pycharm_project\\imageconverter_comp\\proj\\lib\\site-packages\\PyQt5\\Qt5\\translations\\qtbase_de.qm',
   'DATA'),
  ('PyQt5\\Qt\\translations\\qtbase_bg.qm',
   'D:\\00.ws_chan\\03.pycharm_project\\imageconverter_comp\\proj\\lib\\site-packages\\PyQt5\\Qt5\\translations\\qtbase_bg.qm',
   'DATA'),
  ('PyQt5\\Qt\\translations\\qtbase_ko.qm',
   'D:\\00.ws_chan\\03.pycharm_project\\imageconverter_comp\\proj\\lib\\site-packages\\PyQt5\\Qt5\\translations\\qtbase_ko.qm',
   'DATA'),
  ('PyQt5\\Qt\\translations\\qtbase_he.qm',
   'D:\\00.ws_chan\\03.pycharm_project\\imageconverter_comp\\proj\\lib\\site-packages\\PyQt5\\Qt5\\translations\\qtbase_he.qm',
   'DATA'),
  ('PyQt5\\Qt\\translations\\qtbase_ar.qm',
   'D:\\00.ws_chan\\03.pycharm_project\\imageconverter_comp\\proj\\lib\\site-packages\\PyQt5\\Qt5\\translations\\qtbase_ar.qm',
   'DATA'),
  ('PyQt5\\Qt\\translations\\qtbase_zh_TW.qm',
   'D:\\00.ws_chan\\03.pycharm_project\\imageconverter_comp\\proj\\lib\\site-packages\\PyQt5\\Qt5\\translations\\qtbase_zh_TW.qm',
   'DATA'),
  ('PyQt5\\Qt\\translations\\qtbase_fr.qm',
   'D:\\00.ws_chan\\03.pycharm_project\\imageconverter_comp\\proj\\lib\\site-packages\\PyQt5\\Qt5\\translations\\qtbase_fr.qm',
   'DATA'),
  ('PyQt5\\Qt\\translations\\qtbase_sk.qm',
   'D:\\00.ws_chan\\03.pycharm_project\\imageconverter_comp\\proj\\lib\\site-packages\\PyQt5\\Qt5\\translations\\qtbase_sk.qm',
   'DATA'),
  ('ImageConverterAndCompress.exe.manifest',
   'D:\\00.ws_chan\\03.pycharm_project\\ImageConverter_Comp\\build\\ImageConverterAndCompress\\ImageConverterAndCompress.exe.manifest',
   'BINARY'),
  ('pyi-windows-manifest-filename ImageConverterAndCompress.exe.manifest',
   '',
   'OPTION')],
 [],
 False,
 False,
 1630980500,
 [('runw.exe',
   'd:\\00.ws_chan\\03.pycharm_project\\imageconverter_comp\\proj\\lib\\site-packages\\PyInstaller\\bootloader\\Windows-64bit\\runw.exe',
   'EXECUTABLE')])
